http://apps.facebook.com/ajax/apps/usage_update.php?app=98531239231&is_game=true&asyncSignal=6299&post_form_id=dc2e07b8285bec7a7309c84d34bff7d0
http://ad.yieldmanager.com/imp?Z=728x90&s=513131&_salt=2391465208&B=10&u=http%3A%2F%2F47aa1998.linkbucks.com%2F&r=0
http://bft.zoosnet.net/js/CheckInvite.aspx?id=50890806&sid=6340059041003125003871&d=1264966264455
http://mail.live.com/default.aspx?&ip=10.13.156.8&d=d4384&mf=0&rru=inbox
http://content.yieldmanager.com/ak/q.gif
http://www.fortboyard-lejeu.com/continuer.php
http://ad.yieldmanager.com/imp?Z=728x90&s=513131&_salt=3770154705&B=10&u=http%3A%2F%2F47aa1998.linkbucks.com%2F&r=0
http://47aa1998.linkbucks.com/RecordClick.aspx?id=47aa1998&key=a813cf57&ref=http%3a%2f%2f1268370c.linkbucks.com%2furl%2fhttp%3a%2f%2f%2f47aa1998.linkbucks.com&cacheBust=58451955
http://clients1.google.com/translate_a/t
http://47aa1998.linkbucks.com/favicon.ico
http://toolbar.live.com/signin.htm
http://www.facebook.com/ajax/intent.php?filter=lf&delay_load_count=30&first_load_ids=[]&not_yet_seen_ids=[]&seen_old_story=false&show_hidden=false&query_time=1264966257&oldest=1264964107&use_primer=true&__a=1
http://sn131w.snt131.mail.live.com/mail/TodayLight.aspx?layout=TodayDefault&rru=inbox&n=1316646323
http://toolbar.live.com/signin.htm
http://www.fortboyard-lejeu.com/jeu.php
http://profile.ak.fbcdn.net/v22941/715/11/q1274856200_8925.jpg
http://gfx8.hotmail.com/mail/15.1.3028.1103/styles/base/InboxAll.css
http://toolbar.live.com/signin.htm
http://gfx8.hotmail.com/mail/15.1.3028.1103/styles/base/hig.css
http://sn131w.snt131.mail.live.com/mail/InboxLight.aspx?n=2036803189
http://gfx1.hotmail.com/mail/uxp/w4/m1/pr06/h/g.png
http://gfx8.hotmail.com/mail/15.1.3028.1103/styles/base/img/wave.jpg
http://gfx1.hotmail.com/mail/uxp/w4/m1/pr06/h/s3.png
http://gfx1.hotmail.com/mail/uxp/w4/m1/pr06/h/sl1.png
http://cid-9bfed4ea9ab8334c.users.storage.live.com/mydata/myprofile/publicprofile?fofoff=1&ex=48&ck=2
http://sn131w.snt131.mail.live.com/mail/HistoryFrame.hotmail_15.1.3028.1103.html?pf=pf
http://toolbar.live.com/signin.htm
http://www.9moisavectoi.com/dukan/dukan%20photos/hypocalorique.jpg
http://cid-9bfed4ea9ab8334c.users.storage.live.com/mydata/myprofile/publicprofile?fofoff=1&ex=48&ck=634005342773597877
http://gfx2.hotmail.com/mail/w4/pr01/ltr/i_help.gif
http://gfx1.hotmail.com/mail/w4/pr01/IBrokenheartDogfacePizza.gif
http://gfx1.hotmail.com/mail/uxp/w4/m1/pr06/h/strip.png
http://gfx1.hotmail.com/mail/w4/pr01/ltr/i_prev_page_disable.gif
http://gfx1.hotmail.com/mail/w4/pr01/ltr/i_next_page_disable.gif
http://gfx1.hotmail.com/mail/w4/pr01/ltr/ics_2.gif
http://cid-9bfed4ea9ab8334c.users.storage.live.com/mydata/myprofile/generalprofile/profilephoto:thumbnail?fofoff=1&ex=48&ck=2
http://accountservices.msn.com/loginmsn.srf?lc=1033&ct=1264960744&rver=6.0.5285.0&id=64855&MSNPPAuth=CU2FZHeaPnyta1jVMXfyG2!cPG88qBgv1CqYdTwJ7UyUAvQ28PJqQ4KY!JgmspXxFRcAK64M6FKS0zq6WKDbmZLHu6wOa8wCvEPrzYXCP0YbBNOG!w7TL8iefVOt9ULczHhwbdtJXBJECy9O1wuV6CyxPOIqKF*wvjk0hhzubEDfpAOtRjO311fss42gY6wdGcaoBTQy6SNfffI2Nl1glMgIEJqmQDJqHwyIyenVMCjs2fLjrHL*lbuv56vx*3DvVYSjchE757xtbTiu8nbvEVyLzTVyd*!7Az69Rza7iWexMr4q1NK6EsmAiv53KjEGydp*rdqogdUgEcLjKaaor9LjwkYrFRU8XSFZlJkEHIn2vNtM*9cECfnCgestkXwt4gr6FEhFK4o2mtkfD2JscOawCTyXUiUZk5VOMC0pSIi9EastJa8s4LNquPDN4tRmq6PRf0qpBP3pof9jO7X02fAD58CniuC4GMk*3oa1BvgadgF4!kz!6OXYvoHW
http://cid-9bfed4ea9ab8334c.users.storage.live.com/mydata/myprofile/generalprofile/profilephoto:thumbnail?fofoff=1&ex=48&ck=634005342773597877
http://www.fortboyard-lejeu.com/getlevel.php
http://sn131w.snt131.mail.live.com/mail/clear.gif
http://gfx6.hotmail.com/mail/15.1.3028.1103/l0a.js
http://gfx6.hotmail.com/mail/15.1.3028.1103/shared.js
http://s.estat.com/m/web/219031198950?n=5163318468&scw=1280&sch=800&scp=32&r=http%3A%2F%2Flci.tf1.fr%2F&dom=lci.tf1.fr&t=cmspoll&v=2.1&cmsVI=31088915-7258&cmsRK=24&cmsST=NetStream.Play.Stop&cmsPO=40.92&cmsOP=40.92&cmsPS=12&cmsPV=WIN%2010%2C0%2C32%2C18&cmsMV=2.1&cmsME=http%3A%2F%2Fwak.wat.tv%2F2%2FH264-384x288%2F09%2F09%2F3630909.h264%3Fnoseek%26b%3D337%26t%3D8%26bu%3DTF1%26login%3DLCIWAT%26akauth%3D1264965677_3d5a03adc7c90aaf2282de87911dc8c8&cmsDU=117&cmsPL=flash&cmsEV=polling&cmsSN=3631733_Retour%20sur%20la%20carri%C3%A8re%20de%20Pierre%20Vaneck&cmsS1=catch-up&cmsS2=jt_tf1_weekend&cmsS3=tf1&cmsS4=-&cmsS5=null&cmsGR=genre&cmsSD=0
http://s.estat.com/m/web/219031198950?n=4050073824&scw=1280&sch=800&scp=32&r=http%3A%2F%2Flci.tf1.fr%2F&dom=lci.tf1.fr&t=cmspoll&v=2.1&cmsVI=16255926-532&cmsRK=32&cmsST=NetStream.Play.Stop&cmsPO=0&cmsOP=0&cmsPS=12&cmsPV=WIN%2010%2C0%2C32%2C18&cmsMV=2.1&cmsME=http%3A%2F%2Fwak.wat.tv%2F2%2FH264-384x288%2F17%2F33%2F3631733.h264%3Fnoseek%26b%3D625%26t%3D8%26bu%3DTF1%26login%3Djt_tf1_weekend%26akauth%3D1264965557_03c8afe0b0ee2974a68182e2b37ad761&cmsDU=117&cmsPL=flash&cmsEV=polling&cmsSN=3631733_Retour%20sur%20la%20carri%C3%A8re%20de%20Pierre%20Vaneck&cmsS1=catch-up&cmsS2=jt_tf1_weekend&cmsS3=tf1&cmsS4=-&cmsS5=null&cmsGR=genre&cmsSD=0
http://gfx6.hotmail.com/mail/15.1.3028.1103/i0a.js
http://help.live.com/resources/neutral/launchhelp.js
http://gfx1.hotmail.com/mail/w4/pr01/ltr/plx.gif
http://cid-9bfed4ea9ab8334c.users.storage.live.com/mydata/myprofile/generalprofile/profilephoto:thumbnail?fofoff=1&ex=48&ck=634005342773597877
http://clk.tradedoubler.com/click?p=2701&a=403761&g=0&url=http://store.apple.com/fr/go/product/MC37
http://9bfed4ea9ab8334c.users.storage.live.com/MyData/MyProfile/GeneralProfile/ProfilePhoto:UserTileSmall,Thumbnail?fofoff=1&ex=24&ck=634005342773597877
http://ads1.msn.com/library/dap.js
http://gfx6.hotmail.com/mail/15.1.3028.1103/i1a.js
http://gfx6.hotmail.com/mail/15.1.3028.1103/i2a.js
http://s.estat.com/m/web/219031198950?n=9725531852&scw=1280&sch=800&scp=32&r=http%3A%2F%2Flci.tf1.fr%2F&dom=lci.tf1.fr&t=cmspoll&v=2.1&cmsVI=43313849-6884&cmsRK=22&cmsST=NetStream.Play.Stop&cmsPO=0&cmsOP=0&cmsPS=12&cmsPV=WIN%2010%2C0%2C32%2C18&cmsMV=2.1&cmsME=http%3A%2F%2Fwak.wat.tv%2F2%2FH264-384x288%2F17%2F35%2F3631735.h264%3Fnoseek%26b%3D671%26t%3D8%26bu%3DTF1%26login%3Djt_tf1_weekend%26akauth%3D1264965678_36b477b9ba552a7d7341b291e341ae46&cmsDU=117&cmsPL=flash&cmsEV=polling&cmsSN=3631733_Retour%20sur%20la%20carri%C3%A8re%20de%20Pierre%20Vaneck&cmsS1=catch-up&cmsS2=jt_tf1_weekend&cmsS3=tf1&cmsS4=-&cmsS5=null&cmsGR=genre&cmsSD=0
http://registration.euro.apple.com/cgi-bin/trade-cookie.cgi?aosid=p204&siteid=403761&program_id=2701&cid=OAS-EMEA-AFF&tduid=6be861838cac1091553aad8f89011c21&url=http://store.apple.com/fr/go/product/MC37
http://sn131w.snt131.mail.live.com/im/pages/im.aspx
http://gfx2.hotmail.com/mail/w4/pr01/ltr/im/online16_wp.gif
http://gfx1.hotmail.com/mail/w4/pr01/ltr/im/online16.png
http://gfx1.hotmail.com/mail/w4/pr01/ltr/im/busy16.png
http://gfx2.hotmail.com/mail/w4/pr01/ltr/im/away16.png
http://gfx1.hotmail.com/mail/w4/pr01/ltr/im/offline16.png
http://gfx1.hotmail.com/mail/w4/pr01/ltr/im/webim16_wp.gif
http://h.msn.com/c.gif?RF=&PI=44397&DI=5722&PS=96690&cb=1264966279856
http://rad.msn.com/ADSAdClient31.dll?GetSAd=&DPJS=4&PN=MSFT&ID=B057772E6C84EBFA7A096C4CFFFFFFFF&AP=1026&PG=WLMFRC&UC=142
http://mail.live.com/favicon.ico
http://static.ak.facebook.com/common/history_manager.php?|index=2
http://www.facebook.com/ajax/f.php?meta=4%3A9%3A20%3A1625881113%3A%3A%3A0%3A%3A%3A1250195508101%3A%3A%3A26%3A1%3A26&asyncSignal=5957&post_form_id=f4a7223674f045091d07a07c678c64b2
http://ads2.msads.net/CIS/77/000/000/000/001/127.gif
http://h.atdmt.com/c.gif?RF=&PI=44397&DI=5722&PS=96690&cb=1264966279856&RedC=h.msn.com&MXFR=191AAD05C1EA4A029FE16ACCE87B92AC
http://a.rad.msn.com/ADSAdClient31.dll?GetSAd=&DPJS=4&PN=MSFT&ID=B057772E6C84EBFA7A096C4CFFFFFFFF&AP=1090&PG=WLMFR8&UC=142
http://store.apple.com/fr/go/product/MC37?aosid=p204&siteid=403761&program_id=2701&cid=OAS-EMEA-AFF&tduid=6be861838cac1091553aad8f89011c21
http://h.msn.com/c.gif?RF=&PI=44397&DI=5722&PS=96690&cb=1264966279856&MUID=191AAD05C1EA4A029FE16ACCE87B92AC
http://bft.zoosnet.net/js/CheckInvite.aspx?id=50890806&sid=6340059041003125003871&d=1264966271551
http://www.fortboyard-lejeu.com/flash/flv/lvl4.flv
http://a248.e.akamai.net/7/248/8352/1352/store.apple.com/Catalog/fr/Images/css/aos-local.css
http://a248.e.akamai.net/7/248/8352/1352/store.apple.com/rs1/css/sitemap-404.css
http://a248.e.akamai.net/7/248/8352/1352/store.apple.com/rs1/js/bootstrap/release/bootstrap.js
http://a248.e.akamai.net/7/248/8352/1352/store.apple.com/Catalog/regional/amr/css/aos-overrides.css
http://view.atdmt.com/AMF/iview/133426316/direct;wi.160;hi.600/01?click=
http://a248.e.akamai.net/7/248/8352/1352/store.apple.com/rs1/js/metrics/s_code_h.js
http://a248.e.akamai.net/7/248/8352/1352/store.apple.com/rs/js/dojo-0.4.0-ajax/dojo-deprecated.js
http://a248.e.akamai.net/7/248/8352/1352/store.apple.com/rs1/applestore-rs.css
http://a248.e.akamai.net/7/248/8352/1352/store.apple.com/rs1/js/store/release/apple.js
http://a248.e.akamai.net/7/248/8352/1352/store.apple.com/rs1/js/coherent/release/coherent.js
http://spe.atdmt.com/ds/A2AMFMSNFEBY/080109/SpringCleaning08_Fashion_160x600.gif
http://www.facebook.com/gilbert.bladinieres?ref=mf&quickling[version]=215650%3B0&__a=1&_fb_iframe_path=%2Fgilbert.bladinieres
http://profile.ak.fbcdn.net/v230/967/53/q1560406969_144.jpg
http://profile.ak.fbcdn.net/v227/1687/7/q597793456_4426.jpg
http://profile.ak.fbcdn.net/v22942/1589/85/q1105840629_9650.jpg
http://profile.ak.fbcdn.net/v229/482/26/q623539708_3811.jpg
http://profile.ak.fbcdn.net/v229/1061/54/q709983848_7773.jpg
http://profile.ak.fbcdn.net/v22941/1842/9/q1468431794_6603.jpg
http://profile.ak.fbcdn.net/v22944/1010/72/q1551948785_4748.jpg
http://www.facebook.com/ajax/intent.php?filter=lf&oldest=1264954724&use_primer=1&__a=1
http://platform.ak.fbcdn.net/www/app_full_proxy.php?app=25148877350&v=1&size=p&cksum=76d6a0abfd7d5245244fd5afd4c07e87&src=http%3A%2F%2Fcdn.iscool.cafe.com%2Fstatic%2Fimages%2Fgradesng%2FS_kiwi_ligneaerienne01.jpg
http://profile.ak.fbcdn.net/v226/365/2/n1308921705_7722.jpg
http://profile.ak.fbcdn.net/v222/564/118/q1038104401_4075.jpg
http://a248.e.akamai.net/7/248/8352/1352/store.apple.com/rs1/css/i/aos/global/nav/global-search-bg.png
http://a248.e.akamai.net/7/248/8352/1352/store.apple.com/rs/img/block1px.gif
http://a248.e.akamai.net/7/248/8352/1352/store.apple.com/rs1/css/i/aos/seo-header/apple-store-home.gif
http://a248.e.akamai.net/7/248/8352/1352/store.apple.com/rs1/css/i/aos/seo-header/breadcrumb-slash.gif
http://a248.e.akamai.net/7/248/8352/1352/store.apple.com/rs1/css/i/aos/global/cart-compact-header.png
http://a248.e.akamai.net/7/248/8352/1352/store.apple.com/rs1/css/i/aos/header-footer/apple-footer-sprite.gif
http://profile.ak.fbcdn.net/v22939/1947/29/q820044516_6079.jpg
http://platform.ak.fbcdn.net/www/app_full_proxy.php?app=17602331739&v=1&size=p&cksum=fbd0aeb19485ea59873cc6587ab208e2&src=http%3A%2F%2Fcdn2.quizapps.com%2Fimg%2Fsendone.png
http://platform.ak.fbcdn.net/www/app_full_proxy.php?app=17602331739&v=1&size=p&cksum=88d574d46cd2ea35559310df0ccf729f&src=http%3A%2F%2Fcdn6.quizapps.com%2Fimages%2Fimage%3Fid%3D10120235%26resize_within%3D75%252C75%26image_hash%3D52293c4d8cb01e00cf24fd6dccd055b3621ccefd
http://a248.e.akamai.net/7/248/8352/1352/store.apple.com/Catalog/fr/Images/topnav/globalnavbg.png
http://profile.ak.fbcdn.net/v22939/1920/90/q100000279764228_816.jpg
http://platform.ak.fbcdn.net/www/app_full_proxy.php?app=17602331739&v=1&size=p&cksum=e9fca4c2515cdb9f86b60ed5f841154e&src=http%3A%2F%2Fcdn6.quizapps.com%2Fimages%2Fimage%3Fid%3D9011634%26resize_within%3D75%252C75%26image_hash%3D96bd7e9cfab53d2292be1dff0e2f16007a4d658a
http://profile.ak.fbcdn.net/v22940/565/86/q1599909985_4958.jpg
http://photos-c.ak.fbcdn.net/photos-ak-sf2p/v43/246/2219089314/app_4_2219089314_7245.gif
http://profile.ak.fbcdn.net/v226/593/91/q100000315464195_6295.jpg
http://photos-b.ak.fbcdn.net/photos-ak-sf2p/v43/65/9864230609/app_4_9864230609_3161.gif
http://profile.ak.fbcdn.net/v22942/1214/61/q1555657311_9827.jpg
http://profile.ak.fbcdn.net/v225/891/99/q505411874_6836.jpg
http://photos-b.ak.fbcdn.net/hphotos-ak-snc3/hs191.snc3/22994_100000543061499_3632_q.jpg
http://sn131w.snt131.mail.live.com/mail/mail.fpp?cnmn=Microsoft.Msn.Hotmail.Ui.Fpp.MailBox.GetInboxData&a=aEu%252f1ymtVSH5JnKEMDSVGA%253d%253d&au=1998025279&ptid=0
http://metrics.apple.com/b/ss/applefrglobal,applestoreww,applestoreemea,applestoreemeafr,applestoreemeaconsum,applestoreemeafrconsum/1/H.20.3/s68489336350409?AQB=1&ndh=1&t=1/1/2010%206%3A31%3A25%201%20-660&ce=UTF-8&pageName=AOS%3A%20404&g=http%3A//store.apple.com/fr/go/product/MC37%3Faosid%3Dp204%26siteid%3D403761%26program_id%3D2701%26cid%3DOAS-EMEA-AFF%26tduid%3D6be861838cac1091553aad8f89011c21&r=http%3A//www.macgeneration.com/dossiers/voir/7/mac-mini-le-guide-d-achat-des-mac/&cc=EUR&ch=AOS%3A%20404&server=a50158590&v0=OAS-EMEA-AFF&h1=404&c2=AOS%3A%20French%20consumer&v3=AOS%3A%20French%20consumer&v4=AOS%3A%20404&c6=%3A%20AOS%3A%20404&c8=AOS%3A%20404&v30=store.apple.com&s=1280x800&c=24&j=1.7&v=N&k=Y&bw=1268&bh=637&p=Shockwave%20Flash%3BDivX%20Browser%20Plug-In%3BQuickTime%20Plug-in%207.4.5%3BRealPlayer%209%3BWindows%20Media%20Player%20Plug-in%3Bmplayerplug-in%203.55%3BSilverlight%20Plug-In%3BSkype%20Buttons%20for%20Kopete%3B&AQE=1
http://gfx2.hotmail.com/mail/w4/pr01/ltr/i_yellowshield.gif
http://gfx2.hotmail.com/mail/w4/pr01/ltr/i_safe.gif
http://store.apple.com/favicon.ico
http://h.msn.com/c.gif?RF=&PI=44397&DI=5722&PS=96692&cb=1264966285711
http://gfx6.hotmail.com/mail/15.1.3028.1103/im0a.js
http://h.atdmt.com/c.gif?RF=&PI=44397&DI=5722&PS=96692&cb=1264966285711&RedC=h.msn.com&MXFR=191AAD05C1EA4A029FE16ACCE87B92AC&ANON=A=B057772E6C84EBFA7A096C4CFFFFFFFF%26E=962%26W=1&NAP=V=1.9%26E=908%26C=NWqnPg96KLEtl_6v06yvUD33LfXusL80dHnePCCrp1gC7oA6HQYSSw%26W=1
http://gfx6.hotmail.com/mail/15.1.3028.1103/Microsoft.Live.Messenger.Model.Internal.js
http://h.msn.com/c.gif?RF=&PI=44397&DI=5722&PS=96692&cb=1264966285711&MUID=191AAD05C1EA4A029FE16ACCE87B92AC
http://gfx6.hotmail.com/mail/15.1.3028.1103/Microsoft.Live.Messenger.Services.Core.js
http://gfx6.hotmail.com/mail/15.1.3028.1103/Microsoft.Live.Messenger.Services.AddressBook.js
http://www.youtube.com/watch?v=JcWGNlIGxEo&feature=related
http://gfx6.hotmail.com/mail/15.1.3028.1103/Microsoft.Live.Messenger.Services.Chat.js
http://gfx6.hotmail.com/mail/15.1.3028.1103/Microsoft.Live.Messenger.Services.Configuration.js
http://gfx6.hotmail.com/mail/15.1.3028.1103/Microsoft.Live.Messenger.Services.ExpressionProfile.js
http://gfx6.hotmail.com/mail/15.1.3028.1103/Microsoft.Live.Messenger.Services.Identity.js
http://gfx6.hotmail.com/mail/15.1.3028.1103/im0i.js
http://v18.lscache7.c.youtube.com/generate_204?ip=0.0.0.0&sparams=id%2Cexpire%2Cip%2Cipbits%2Citag%2Calgorithm%2Cburst%2Cfactor&fexp=902904%2C906501%2C903105&algorithm=throttle-factor&itag=34&ipbits=0&burst=40&sver=3&expire=1264989600&key=yt1&signature=14B9426A52B46F5E6AA457F03C837CF8D89AA730.25ED26893A59D425BA2E933885CEB5782E5D5545&factor=1.25&id=25c586365206c44a
http://s.estat.com/m/web/219031198950?n=5988758914&scw=1280&sch=800&scp=32&r=http%3A%2F%2Flci.tf1.fr%2F&dom=lci.tf1.fr&t=cmspoll&v=2.1&cmsVI=56051163-5619&cmsRK=29&cmsST=NetStream.Play.Stop&cmsPO=0&cmsOP=0&cmsPS=12&cmsPV=WIN%2010%2C0%2C32%2C18&cmsMV=2.1&cmsME=http%3A%2F%2Fwak.wat.tv%2F2%2FH264-384x288%2F17%2F55%2F3631755.h264%3Fnoseek%26b%3D749%26t%3D8%26bu%3DTF1%26login%3Djt_tf1_weekend%26akauth%3D1264965927_08bfdcb42504ae4557502933130b9b8e&cmsDU=117&cmsPL=flash&cmsEV=polling&cmsSN=3631733_Retour%20sur%20la%20carri%C3%A8re%20de%20Pierre%20Vaneck&cmsS1=catch-up&cmsS2=jt_tf1_weekend&cmsS3=tf1&cmsS4=-&cmsS5=null&cmsGR=genre&cmsSD=0
http://www.facebook.com/ajax/intent.php?filter=lf&request_type=1&__a=1
http://s.estat.com/m/web/219031198950?n=3579192790&scw=1280&sch=800&scp=32&r=http%3A%2F%2Flci.tf1.fr%2F&dom=lci.tf1.fr&t=cmspoll&v=2.1&cmsVI=11983705-4999&cmsRK=9&cmsST=NetStream.Buffer.Flush&cmsPO=168.896&cmsOP=118.741&cmsPS=17&cmsPV=WIN%2010%2C0%2C32%2C18&cmsMV=2.1&cmsME=http%3A%2F%2Fwak.wat.tv%2F2%2FH264-384x288%2F18%2F49%2F3631849.h264%3Fnoseek%26b%3D571%26t%3D8%26bu%3DTF1%26login%3Djt_tf1_weekend%26akauth%3D1264966236_898c5eecbd199dd4173624f7b843394e&cmsDU=117&cmsPL=flash&cmsEV=state&cmsSN=3631733_Retour%20sur%20la%20carri%C3%A8re%20de%20Pierre%20Vaneck&cmsS1=catch-up&cmsS2=jt_tf1_weekend&cmsS3=tf1&cmsS4=-&cmsS5=null&cmsGR=genre&cmsSD=0
http://gfx6.hotmail.com/mail/15.1.3028.1103/im0j.js
http://1.channel25.facebook.com/x/1222037824/false/p_678414840=1
http://s.estat.com/m/web/219031198950?n=2235631729&scw=1280&sch=800&scp=32&r=http%3A%2F%2Flci.tf1.fr%2F&dom=lci.tf1.fr&t=cmspoll&v=2.1&cmsVI=11983705-4999&cmsRK=10&cmsST=eStat.AvoidEOFStop&cmsPO=168.981&cmsOP=168.896&cmsPS=5&cmsPV=WIN%2010%2C0%2C32%2C18&cmsMV=2.1&cmsME=http%3A%2F%2Fwak.wat.tv%2F2%2FH264-384x288%2F18%2F49%2F3631849.h264%3Fnoseek%26b%3D571%26t%3D8%26bu%3DTF1%26login%3Djt_tf1_weekend%26akauth%3D1264966236_898c5eecbd199dd4173624f7b843394e&cmsDU=117&cmsPL=flash&cmsEV=state&cmsSN=3631733_Retour%20sur%20la%20carri%C3%A8re%20de%20Pierre%20Vaneck&cmsS1=catch-up&cmsS2=jt_tf1_weekend&cmsS3=tf1&cmsS4=-&cmsS5=null&cmsGR=genre&cmsSD=0
http://i3.ytimg.com/vi/r35PHe4bQPw/default.jpg
http://i4.ytimg.com/i/7U3QhWOdXB_BCu6j5TZU2Q/1.jpg?v=7e8ce8
http://i2.ytimg.com/vi/9fv1knMWOK8/default.jpg
http://i2.ytimg.com/vi/1ZU5t4oEzdg/default.jpg
http://i4.ytimg.com/vi/wn5vPnPuaa8/default.jpg
http://gfx6.hotmail.com/mail/15.1.3028.1103/im0k.js
http://i1.ytimg.com/i/p-gLIMrXD94QNBqU5OexCA/1.jpg?v=66db51
http://i2.ytimg.com/vi/m2ymtT_ptTw/default.jpg
http://store.apple.com/favicon.ico
http://s.estat.com/m/web/219031198950?n=6661746004&scw=1280&sch=800&scp=32&r=http%3A%2F%2Flci.tf1.fr%2F&dom=lci.tf1.fr&t=cmspoll&v=2.1&cmsVI=1250464-9465&cmsRK=23&cmsST=NetStream.Play.Stop&cmsPO=0&cmsOP=0&cmsPS=12&cmsPV=WIN%2010%2C0%2C32%2C18&cmsMV=2.1&cmsME=http%3A%2F%2Fwak.wat.tv%2F2%2FH264-384x288%2F17%2F99%2F3631799.h264%3Fnoseek%26b%3D488%26t%3D8%26bu%3DTF1%26login%3Djt_tf1_weekend%26akauth%3D1264965806_df7f36f1f6b948fe7f3f77f7b2ab3712&cmsDU=117&cmsPL=flash&cmsEV=polling&cmsSN=3631733_Retour%20sur%20la%20carri%C3%A8re%20de%20Pierre%20Vaneck&cmsS1=catch-up&cmsS2=jt_tf1_weekend&cmsS3=tf1&cmsS4=-&cmsS5=null&cmsGR=genre&cmsSD=0
http://gfx6.hotmail.com/mail/15.1.3028.1103/im0l.js
http://www.youtube.com/get_video?fmt=34&asv=3&t=vjVQa1PpcFPIZbhpt9d5xyL7JYpEcAD1wt7XfbBXDqs=&video_id=JcWGNlIGxEo&el=detailpage&noflv=1
http://www.youtube.com/get_video?video_id=JcWGNlIGxEo&t=vjVQa1PpcFPIZbhpt9d5xyL7JYpEcAD1wt7XfbBXDqs%3D&fmt=18
http://www.youtube.com/get_video?video_id=JcWGNlIGxEo&t=vjVQa1PpcFPIZbhpt9d5xyL7JYpEcAD1wt7XfbBXDqs%3D&fmt=6
http://www.youtube.com/get_video?video_id=JcWGNlIGxEo&t=vjVQa1PpcFPIZbhpt9d5xyL7JYpEcAD1wt7XfbBXDqs%3D&fmt=35
http://gfx2.hotmail.com/mail/w4/pr01/ltr/im/offline16.png
http://www.youtube.com/get_video?video_id=JcWGNlIGxEo&t=vjVQa1PpcFPIZbhpt9d5xyL7JYpEcAD1wt7XfbBXDqs%3D&fmt=22
http://sn131w.snt131.mail.live.com/im/pages/BuddyList.aspx
http://sn131w.snt131.mail.live.com/im/pages/ToastFull.aspx
http://gfx6.hotmail.com/mail/15.1.3028.1103/im0p.js
http://csi.gstatic.com/csi?v=2&s=youtube&action=watch&fmt=34&asv=3&plid=AAR-eupB6rrOFCga&sprot=0&rt=ct.171,ol.1235,fs.792,gv.901,fvb.1386,aft.1980,vl.1079&e=902904,906501,903105
http://gfx2.hotmail.com/mail/w4/pr01/ltr/im/chat16.png
http://gfx1.hotmail.com/mail/w4/pr01/ltr/glyph_close_rest.gif
http://gfx8.hotmail.com/mail/15.1.3028.1103/styles/base/WebIM.css
http://gfx2.hotmail.com/mail/w4/pr01/ltr/im/toast_minimize.gif
http://bft.zoosnet.net/js/CheckInvite.aspx?id=50890806&sid=6340059041003125003871&d=1264966278650
http://sn131w.snt131.mail.live.com/im/pages/ToastMini.aspx
http://gfx2.hotmail.com/mail/w4/pr01/ltr/im/toast_maximize.gif
http://s2.youtube.com/crossdomain.xml
http://video-stats.video.google.com/s?len=287.64&nsiablc=5&nsivbblmin=10031.000&nsiablmean=1.607&w=480&nsiabblmax=20170.000&vid=SyzV38jxbP-cn3WfTTWM30Q_Ue5K2gZxR&nsiabblc=5&nsivblmean=1.624&nsivblmin=0.400&nsiablmin=0.418&hbt=10.586&bd=144984&h=360&nsiablmax=2.508&rt=1.172&sdetail=f%3Arelated%2Crv%3AgPKk2-lIzdk&fv=WIN%2010,0,22,87&scoville=1&fexp=902904,906501,903105&bt=0.594&ns=yt&nsivbblmax=90253.000&st=0.186&nsivblmax=2.480&et=0.186&cfps=0&docid=JcWGNlIGxEo&nsivblc=5&vh=240&md=1&hl=fr_FR&nsivbblmean=58131.000&sd=BD208B989HM&plid=AAR-eupB6rrOFCga&csipt=watch&cr=FR&el=detailpage&vw=320&smoothing=1&fmt=34&nsivbblc=5&nsiabblmean=12910.800&hbd=5274266&sourceid=yw&bc=145308&nsiabblmin=3136.000
http://s2.youtube.com/s?vid=SyzV38jxbP-cn3WfTTWM30Q_Ue5K2gZxR&plid=AAR-eupB6rrOFCga&ns=yt&st=0.08&fmt=34&docid=JcWGNlIGxEo&ctp=1&el=detailpage&yttk=1&et=0.08
toolbar.google.com:443
http://www.google-analytics.com/__utm.gif?utmwv=4.6.5&utmn=483080075&utmhn=www.megaupload.com&utmcs=utf-8&utmsr=1600x900&utmsc=32-bit&utmul=fr&utmje=1&utmfl=10.0%20r42&utmcn=1&utmdt=MEGAUPLOAD%20-%20Le%20leader%20en%20stockage%20et%20livraison%20de%20fichiers&utmhid=1414302840&utmr=http%3A%2F%2F47aa1998.linkbucks.com%2F&utmp=%2F%3Fd%3DUJL5YSFP&utmac=UA-6383685-1&utmcc=__utma%3D216392970.595949252.1263275158.1264966050.1264966292.62%3B%2B__utmz%3D216392970.1264966292.62.54.utmcsr%3D47aa1998.linkbucks.com%7Cutmccn%3D(referral)%7Cutmcmd%3Dreferral%7Cutmcct%3D%2F%3B
http://wwwstatic.megavideo.com/cookie.swf
http://s.estat.com/m/web/219031198950?n=9783527399&scw=1280&sch=800&scp=32&r=http%3A%2F%2Flci.tf1.fr%2F&dom=lci.tf1.fr&t=cmspoll&v=2.1&cmsVI=11983705-4999&cmsRK=11&cmsST=NetStream.Buffer.Flush&cmsPO=171.584&cmsOP=168.981&cmsPS=17&cmsPV=WIN%2010%2C0%2C32%2C18&cmsMV=2.1&cmsME=http%3A%2F%2Fwak.wat.tv%2F2%2FH264-384x288%2F18%2F49%2F3631849.h264%3Fnoseek%26b%3D571%26t%3D8%26bu%3DTF1%26login%3Djt_tf1_weekend%26akauth%3D1264966236_898c5eecbd199dd4173624f7b843394e&cmsDU=117&cmsPL=flash&cmsEV=state&cmsSN=3631733_Retour%20sur%20la%20carri%C3%A8re%20de%20Pierre%20Vaneck&cmsS1=catch-up&cmsS2=jt_tf1_weekend&cmsS3=tf1&cmsS4=-&cmsS5=null&cmsGR=genre&cmsSD=0
http://s.estat.com/m/web/219031198950?n=7770469612&scw=1280&sch=800&scp=32&r=http%3A%2F%2Flci.tf1.fr%2F&dom=lci.tf1.fr&t=cmspoll&v=2.1&cmsVI=11983705-4999&cmsRK=12&cmsST=eStat.AvoidEOFStop&cmsPO=171.861&cmsOP=171.584&cmsPS=5&cmsPV=WIN%2010%2C0%2C32%2C18&cmsMV=2.1&cmsME=http%3A%2F%2Fwak.wat.tv%2F2%2FH264-384x288%2F18%2F49%2F3631849.h264%3Fnoseek%26b%3D571%26t%3D8%26bu%3DTF1%26login%3Djt_tf1_weekend%26akauth%3D1264966236_898c5eecbd199dd4173624f7b843394e&cmsDU=117&cmsPL=flash&cmsEV=state&cmsSN=3631733_Retour%20sur%20la%20carri%C3%A8re%20de%20Pierre%20Vaneck&cmsS1=catch-up&cmsS2=jt_tf1_weekend&cmsS3=tf1&cmsS4=-&cmsS5=null&cmsGR=genre&cmsSD=0
http://rencontre.easyflirt.com/messenger/messPing.php
http://s.megaclick.com/mc.js
http://nht-2.extreme-dm.com/n2.g?login=kimble&pid=main&jv=y&j=y&srw=1600&srb=32&l=http%3A//47aa1998.linkbucks.com/
http://s.estat.com/m/web/219031198950?n=3985742945&scw=1280&sch=800&scp=32&r=http%3A%2F%2Flci.tf1.fr%2F&dom=lci.tf1.fr&t=cmspoll&v=2.1&cmsVI=99440649-6688&cmsRK=30&cmsST=NetStream.Play.Stop&cmsPO=0&cmsOP=0&cmsPS=12&cmsPV=WIN%2010%2C0%2C32%2C18&cmsMV=2.1&cmsME=http%3A%2F%2Fwak.wat.tv%2F2%2FH264-384x288%2F18%2F47%2F3631847.h264%3Fnoseek%26b%3D548%26t%3D8%26bu%3DTF1%26login%3Djt_tf1_weekend%26akauth%3D1264966111_3b48e6e4b11815e5cc8f000a289339c5&cmsDU=117&cmsPL=flash&cmsEV=polling&cmsSN=3631733_Retour%20sur%20la%20carri%C3%A8re%20de%20Pierre%20Vaneck&cmsS1=catch-up&cmsS2=jt_tf1_weekend&cmsS3=tf1&cmsS4=-&cmsS5=null&cmsGR=genre&cmsSD=0
http://s.megaclick.com/ad.code?&title_color=FF0000&text_color=000000&background_color=F8F6F2&border_color=FFFFFF&newwin=&width=995&height=275&adtype=995x275&zone_id=2&camp_id=0&ad_id=0&c=32&sc=1600x900
http://s.megaclick.com/incflash.js
http://s.megaclick.com/fillerads/mu_dl/2/fr/mm_small.swf
http://s.megaclick.com/fillerads/mu_dl/2/fr/mv_small.swf
http://v12.lscache7.c.youtube.com/videoplayback?ip=0.0.0.0&sparams=id%2Cexpire%2Cip%2Cipbits%2Citag%2Calgorithm%2Cburst%2Cfactor&fexp=902904%2C906501%2C903105&algorithm=throttle-factor&itag=18&ipbits=0&burst=40&sver=3&expire=1264989600&key=yt1&signature=B3A49C12DA9AE32F7644D3F29F98DC0541402D06.9A91DC5E0485D12C51E8A1AF0A261893B94BF44F&factor=1.25&id=25c586365206c44a
http://s.estat.com/m/web/219031198950?n=3081174111&scw=1280&sch=800&scp=32&r=http%3A%2F%2Flci.tf1.fr%2F&dom=lci.tf1.fr&t=cmspoll&v=2.1&cmsVI=11983705-4999&cmsRK=13&cmsST=NetStream.Play.Stop&cmsPO=174.421&cmsOP=171.861&cmsPS=12&cmsPV=WIN%2010%2C0%2C32%2C18&cmsMV=2.1&cmsME=http%3A%2F%2Fwak.wat.tv%2F2%2FH264-384x288%2F18%2F49%2F3631849.h264%3Fnoseek%26b%3D571%26t%3D8%26bu%3DTF1%26login%3Djt_tf1_weekend%26akauth%3D1264966236_898c5eecbd199dd4173624f7b843394e&cmsDU=117&cmsPL=flash&cmsEV=state&cmsSN=3631733_Retour%20sur%20la%20carri%C3%A8re%20de%20Pierre%20Vaneck&cmsS1=catch-up&cmsS2=jt_tf1_weekend&cmsS3=tf1&cmsS4=-&cmsS5=null&cmsGR=genre&cmsSD=0
http://f.megaclick.com/dsnr.php?s=1264966293.36417&ip=61.5.210.34
http://sn131w.snt131.mail.live.com/mail/mail.fpp?cnmn=Microsoft.Msn.Hotmail.Ui.Fpp.MailBox.GetInboxData&a=aEu%252f1ymtVSH5JnKEMDSVGA%253d%253d&au=1998025279&ptid=0
http://f.megaclick.com/mu_small_tab.gif
http://s.megaclick.com/ad.code?&title_color=0000FF&text_color=000000&background_color=FFFFFF&border_color=FFFFFF&newwin=&width=1&height=1&adtype=1x1&zone_id=14&camp_id=33538&ad_id=34402&c=32&sc=1600x900
http://rad.msn.com/ADSAdClient31.dll?GetSAd=&DPJS=4&PN=MSFT&ID=B057772E6C84EBFA7A096C4CFFFFFFFF&AP=1090&PG=WLMFR8&UC=142
http://www.wat.tv/interface/contentv2/3631733
http://ad.z5x.net/st?ad_type=iframe&ad_size=300x250&section=392129
http://0.channel25.facebook.com/x/1038417812/false/p_678414840=1
http://www.wat.tv/get/99e35e8ca3414ce961f28780ba77aee8/4b65d7ad/2/FLV-320x240/17/33/3631733.flv?domain=lci.tf1.fr&helios=1&context=swfpu&pub=4&sitepage=TF1%2Finfos%2Fhome&getURL=1&version=WIN%2010,0,32,18
http://clients1.google.com/translate_a/t
http://ad.z5x.net/imp?Z=300x250&s=392129&_salt=3749578223&B=10&u=http%3A%2F%2Ff.megaclick.com%2Fdsnr.php%3Fs%3D1264966293.36417%26ip%3D61.5.210.34&r=0
http://b.rad.msn.com/ADSAdClient31.dll?GetSAd=&DPJS=4&PN=MSFT&ID=B057772E6C84EBFA7A096C4CFFFFFFFF&AP=1026&PG=WLMFRC&UC=142
http://b.ads2.msads.net/CIS/67/000/000/000/002/964.gif
http://ads2.msads.net/CIS/67/000/000/000/003/676.swf?fd=sn131w.snt131.mail.live.com&clickTAG=http%3A//g.msn.com/2AD0001N/49000000000008124.1%3F%3FPID%3D6892040%26amp%3BUIT%3DA%26amp%3BTargetID%3D21825095%26amp%3BAN%3D421609866%26amp%3BPG%3DWLMFR8%26amp%3BASID%3D998f805f57f04161a12e326ae5104774&clickTag=http%3A//g.msn.com/2AD0001N/49000000000008124.1%3F%3FPID%3D6892040%26amp%3BUIT%3DA%26amp%3BTargetID%3D21825095%26amp%3BAN%3D421609866%26amp%3BPG%3DWLMFR8%26amp%3BASID%3D998f805f57f04161a12e326ae5104774
http://s.estat.com/m/web/219031198950?n=3708489854&scw=1280&sch=800&scp=32&r=http%3A%2F%2Flci.tf1.fr%2F&dom=lci.tf1.fr&t=cmspoll&v=2.1&cmsVI=70895073-830&cmsRK=0&cmsST=NetStream.Play.Start&cmsPO=0&cmsOP=0&cmsPS=4&cmsPV=WIN%2010%2C0%2C32%2C18&cmsMV=2.1&cmsME=http%3A%2F%2Fwak.wat.tv%2F2%2FH264-384x288%2F17%2F33%2F3631733.h264%3Fnoseek%26b%3D625%26t%3D8%26bu%3DTF1%26login%3Djt_tf1_weekend%26akauth%3D1264966415_a4cc5190320a12f2275793449bf30f6c&cmsDU=117&cmsPL=flash&cmsEV=state&cmsSN=3631733_Retour%20sur%20la%20carri%C3%A8re%20de%20Pierre%20Vaneck&cmsS1=catch-up&cmsS2=jt_tf1_weekend&cmsS3=tf1&cmsS4=-&cmsS5=null&cmsGR=genre&cmsSD=0
http://s.estat.com/m/web/219031198950?n=7920405827&scw=1280&sch=800&scp=32&r=http%3A%2F%2Flci.tf1.fr%2F&dom=lci.tf1.fr&t=cmspoll&v=2.1&cmsVI=70895073-830&cmsRK=1&cmsST=NetStream.Play.Resume&cmsPO=0&cmsOP=0&cmsPS=5&cmsPV=WIN%2010%2C0%2C32%2C18&cmsMV=2.1&cmsME=http%3A%2F%2Fwak.wat.tv%2F2%2FH264-384x288%2F17%2F33%2F3631733.h264%3Fnoseek%26b%3D625%26t%3D8%26bu%3DTF1%26login%3Djt_tf1_weekend%26akauth%3D1264966415_a4cc5190320a12f2275793449bf30f6c&cmsDU=117&cmsPL=flash&cmsEV=state&cmsSN=3631733_Retour%20sur%20la%20carri%C3%A8re%20de%20Pierre%20Vaneck&cmsS1=catch-up&cmsS2=jt_tf1_weekend&cmsS3=tf1&cmsS4=-&cmsS5=null&cmsGR=genre&cmsSD=0
http://bft.zoosnet.net/js/CheckInvite.aspx?id=50890806&sid=6340059041003125003871&d=1264966285746
http://l.yimg.com/d/lib/eu/nw/200911201333/news_css_story_print.css
http://l.yimg.com/d/lib/eu/nw/200911201333/story.css
http://l.yimg.com/i/i/eu/ne/frp.gif
http://l.yimg.com/i/i/fr/ne/x/telev3.jpg
http://l.yimg.com/i/i/fr/ne/z/mode7.jpg
http://l.yimg.com/i/i/fr/ne/z/fillo29.jpg
http://l.yimg.com/i/i/eu/ne/sp/horiz1.gif
http://l.yimg.com/i/i/fr/ne/z/zigon.gif
http://l.yimg.com/i/i/fr/ne/z/footb1.jpg
http://l.yimg.com/i/i/eu/ne/sp/bigb.png
http://l.yimg.com/i/i/eu/ne/big42.png
http://l.yimg.com/i/i/eu/ne/sp/ukie3.gif
http://l.yimg.com/i/i/eu/ne/bgre.gif
http://l.yimg.com/d/lib/eu/nw/sharin.png
http://s.estat.com/m/web/219031198950?n=4755693874&scw=1280&sch=800&scp=32&r=http%3A%2F%2Flci.tf1.fr%2F&dom=lci.tf1.fr&t=cmspoll&v=2.1&cmsVI=70895073-830&cmsRK=2&cmsST=NetStream.Buffer.Empty&cmsPO=0.56&cmsOP=0&cmsPS=2&cmsPV=WIN%2010%2C0%2C32%2C18&cmsMV=2.1&cmsME=http%3A%2F%2Fwak.wat.tv%2F2%2FH264-384x288%2F17%2F33%2F3631733.h264%3Fnoseek%26b%3D625%26t%3D8%26bu%3DTF1%26login%3Djt_tf1_weekend%26akauth%3D1264966415_a4cc5190320a12f2275793449bf30f6c&cmsDU=117&cmsPL=flash&cmsEV=state&cmsSN=3631733_Retour%20sur%20la%20carri%C3%A8re%20de%20Pierre%20Vaneck&cmsS1=catch-up&cmsS2=jt_tf1_weekend&cmsS3=tf1&cmsS4=-&cmsS5=null&cmsGR=genre&cmsSD=0
http://s.estat.com/m/web/219031198950?n=1083151670&scw=1280&sch=800&scp=32&r=http%3A%2F%2Flci.tf1.fr%2F&dom=lci.tf1.fr&t=cmspoll&v=2.1&cmsVI=70895073-830&cmsRK=3&cmsST=NetStream.Buffer.Full&cmsPO=0.56&cmsOP=0.56&cmsPS=5&cmsPV=WIN%2010%2C0%2C32%2C18&cmsMV=2.1&cmsME=http%3A%2F%2Fwak.wat.tv%2F2%2FH264-384x288%2F17%2F33%2F3631733.h264%3Fnoseek%26b%3D625%26t%3D8%26bu%3DTF1%26login%3Djt_tf1_weekend%26akauth%3D1264966415_a4cc5190320a12f2275793449bf30f6c&cmsDU=117&cmsPL=flash&cmsEV=state&cmsSN=3631733_Retour%20sur%20la%20carri%C3%A8re%20de%20Pierre%20Vaneck&cmsS1=catch-up&cmsS2=jt_tf1_weekend&cmsS3=tf1&cmsS4=-&cmsS5=null&cmsGR=genre&cmsSD=0
http://s.estat.com/m/web/219031198950?n=7840892076&scw=1280&sch=800&scp=32&r=http%3A%2F%2Flci.tf1.fr%2F&dom=lci.tf1.fr&t=cmspoll&v=2.1&cmsVI=11983705-4999&cmsRK=14&cmsST=NetStream.Play.Stop&cmsPO=0&cmsOP=174.421&cmsPS=12&cmsPV=WIN%2010%2C0%2C32%2C18&cmsMV=2.1&cmsME=http%3A%2F%2Fwak.wat.tv%2F2%2FH264-384x288%2F18%2F49%2F3631849.h264%3Fnoseek%26b%3D571%26t%3D8%26bu%3DTF1%26login%3Djt_tf1_weekend%26akauth%3D1264966236_898c5eecbd199dd4173624f7b843394e&cmsDU=117&cmsPL=flash&cmsEV=polling&cmsSN=3631733_Retour%20sur%20la%20carri%C3%A8re%20de%20Pierre%20Vaneck&cmsS1=catch-up&cmsS2=jt_tf1_weekend&cmsS3=tf1&cmsS4=-&cmsS5=null&cmsGR=genre&cmsSD=0
http://d.yimg.com/i/ng/ne/zigonet/20100131/15/1912864543-deux-tiers-des-femmes-forte-poitrine-porteraient-des-soutiens-gorge.jpg?x=129&y=130&q=75&wc=250&hc=251&xc=1&yc=17&sig=1azJnoHuGJatgW0fIzOJHw--
http://d.yimg.com/i/ng/ne/zigonet/20100131/15/1551424886-etats-unis-une-meteorite-s-ecrase-sur-un-cabinet-medical.jpg?x=129&y=130&q=75&wc=250&hc=251&xc=1&yc=17&sig=XDrmszNYu4QO8s2jA3MRkw--
http://l.yimg.com/i/i/eu/any/buzz.gif
http://d.yimg.com/i/ng/ne/zigonet/20100131/18/58348511-etats-unis-il-vole-les-mauvais-medicaments-dans-un-drugstore.jpg?x=205&y=232&q=75&sig=rPTL8_lFnBKfOlfGxxa_Dw--
http://d.yimg.com/i/ng/ne/zigonet/20100131/18/532020700-ecosse-un-whisky-taiwanais-prime-par-un-concours-ecossais.jpg?x=129&y=130&q=75&wc=250&hc=251&xc=1&yc=16&sig=ScbGR2HQqIHzm_Biixsuow--
http://d.yimg.com/i/ng/ne/zigonet/20100131/18/2311251062-etats-unis-ivre-il-essaie-d-entrer-dans-une-prison.jpg?x=129&y=130&q=75&wc=250&hc=251&xc=1&yc=17&sig=b4WUoKWnJFIpOTbrfy5JAA--
http://l.yimg.com/d/lib/eu/nw/200911201333/fr/story.js
http://clients3.google.com/sidewiki/client/cmd/annotations
http://0.channel60.facebook.com/x/1631597102/false/p_1025570649=0
http://toolbarqueries.google.com/search?features=Rank&sourceid=navclient-ff&client=navclient-auto-ff&googleip=O;210.8.185.147;378&iqrn=VNCB&querytime=A_B&orig=0A19G&swwk=355&ch=8137190d8&q=info:http%3A%2F%2Fwww.9moisavectoi.com%2Fdukan%2Fspecial%2520k.htm
http://d.yimg.com/i/util/anysize/93,http%3A%2F%2Fl.yimg.com%2Fi%2Fi%2Ffr%2Fne%2Fz%2F73677.jpg?v=2
http://csi.gstatic.com/csi?v=3&s=annotateweb&action=annotations&tran=-5&rt=il.277
http://ad.yieldmanager.com/st?ad_type=iframe&ad_size=300x250&site=167502&section_code=201943777&cb=1264966297738002&yrc=fr&ycg=f&yyob=1983
http://d.yimg.com/mi/ywa.js
http://astatic.weborama.fr/js/adperf_network.js
http://www.9moisavectoi.com/dukan/special%20k.htm
http://www.9moisavectoi.com/dukan/images/fond_cellule.png
http://ad.yieldmanager.com/pixel?adv=29657&code=281;303;791;2097;2621;2894;4076
http://content.yieldmanager.com/ak/q.gif
http://sn131w.snt131.mail.live.com/mail/mail.fpp?cnmn=Microsoft.Msn.Hotmail.Ui.Fpp.MailBox.GetInboxData&a=aEu%252f1ymtVSH5JnKEMDSVGA%253d%253d&au=1998025279&ptid=0
http://gfx2.hotmail.com/mail/w4/pr01/ltr/i_attach.gif
http://gold.weborama.fr/fcgi-bin/comptage.fcgi?ID=225221&ZONE=5&PAGE=493&ver=3&da2=1265005896&rd=269&ta=1280x800&co=32&ref=http%3A//www.9moisavectoi.com/dukan/hypo1.htm
http://wintext.weborama.fr/fast/w-in-text.fcgi?idsite=225221&webo_thema=&cl_link=&gold=1&url=http%3A//www.9moisavectoi.com/dukan/special%2520k.htm
urs.microsoft.com:443
http://l.yimg.com/i/i/uk/mob/space.gif
http://l.yimg.com/d/lib/eu/nw/200911201333/fr/lazyload.js
http://www.facebook.com/album.php?aid=50589&id=1379241500&ref=nf
http://www.freecompteur.com/live.php3?name=fubukimorisan&style=11
http://photos-a.ak.fbcdn.net/hphotos-ak-snc3/hs180.snc3/20731_1352536578342_1379241500_985438_5323967_s.jpg
http://photos-d.ak.fbcdn.net/hphotos-ak-snc3/hs200.snc3/20731_1352536698345_1379241500_985441_5614610_s.jpg
http://photos-e.ak.fbcdn.net/hphotos-ak-snc3/hs180.snc3/20731_1352536858349_1379241500_985444_7419809_s.jpg
http://photos-b.ak.fbcdn.net/hphotos-ak-snc3/hs200.snc3/20731_1352536778347_1379241500_985442_2414246_s.jpg
http://photos-h.ak.fbcdn.net/hphotos-ak-snc3/hs200.snc3/20731_1352536818348_1379241500_985443_4683635_s.jpg
http://photos-c.ak.fbcdn.net/hphotos-ak-snc3/hs180.snc3/20731_1352536898350_1379241500_985445_2565326_s.jpg
http://photos-b.ak.fbcdn.net/hphotos-ak-snc3/hs200.snc3/20731_1352537058354_1379241500_985449_8241014_s.jpg
http://photos-a.ak.fbcdn.net/hphotos-ak-snc3/hs180.snc3/20731_1352536938351_1379241500_985446_8090983_s.jpg
http://photos-e.ak.fbcdn.net/hphotos-ak-snc3/hs180.snc3/20731_1352537098355_1379241500_985450_5600744_s.jpg
http://photos-c.ak.fbcdn.net/hphotos-ak-snc3/hs180.snc3/20731_1352537138356_1379241500_985451_7998610_s.jpg
http://photos-g.ak.fbcdn.net/hphotos-ak-snc3/hs180.snc3/20731_1352536978352_1379241500_985447_3974894_s.jpg
http://photos-h.ak.fbcdn.net/hphotos-ak-snc3/hs200.snc3/20731_1352537018353_1379241500_985448_5220417_s.jpg
http://sn131w.snt131.mail.live.com/att/GetAttachment.aspx?tnail=0&messageId=2a4fe0d2-0e90-11df-aacb-002264c1d610&Aux=4|0|8CC70B411F32950||
http://photos-d.ak.fbcdn.net/hphotos-ak-snc3/hs200.snc3/20731_1352537298360_1379241500_985455_5185307_s.jpg
http://photos-f.ak.fbcdn.net/hphotos-ak-snc3/hs200.snc3/20731_1352537258359_1379241500_985454_4002765_s.jpg
http://photos-a.ak.fbcdn.net/hphotos-ak-snc3/hs180.snc3/20731_1352537178357_1379241500_985452_3164609_s.jpg
http://photos-h.ak.fbcdn.net/photos-ak-sf2p/v43/155/128581025231/app_2_128581025231_5622.gif
http://photos-g.ak.fbcdn.net/hphotos-ak-snc3/hs180.snc3/20731_1352553018753_1379241500_985470_1763601_s.jpg
http://sn131w.snt131.mail.live.com/att/GetAttachment.aspx?tnail=2&messageId=2a4fe0d2-0e90-11df-aacb-002264c1d610&Aux=4|0|8CC70B411F32950||
http://photos-g.ak.fbcdn.net/hphotos-ak-snc3/hs180.snc3/20731_1352537218358_1379241500_985453_2904292_s.jpg
http://l.yimg.com/i/i/fr/ne/x/ps013.jpg
http://sn131w.snt131.mail.live.com/att/GetAttachment.aspx?tnail=3&messageId=2a4fe0d2-0e90-11df-aacb-002264c1d610&Aux=4|0|8CC70B411F32950||
http://photos-a.ak.fbcdn.net/hphotos-ak-snc3/hs180.snc3/20731_1352553058754_1379241500_985471_5976672_s.jpg
http://l.yimg.com/i/i/fr/hp/x/haiti4.jpg
http://l.yimg.com/i/i/fr/ne/z/obama74.jpg
http://l.yimg.com/i/i/fr/ne/z/cata.jpg
http://l.yimg.com/i/i/fr/ne/z/sarko132.jpg
http://sn131w.snt131.mail.live.com/att/GetAttachment.aspx?tnail=1&messageId=2a4fe0d2-0e90-11df-aacb-002264c1d610&Aux=4|0|8CC70B411F32950||
http://l.yimg.com/i/i/fr/ne/z/amour.jpg
http://l.yimg.com/i/i/fr/ne/z/polic6.jpg
http://bft.zoosnet.net/js/CheckInvite.aspx?id=50890806&sid=6340059041003125003871&d=1264966292845
http://h.msn.com/c.gif?RF=&PI=44397&DI=5722&PS=96691&cb=1264966300374
http://redir.metaservices.microsoft.com/redir/getmdrcdposturlbackground/?locale=40c&geoid=14e&version=12.0.7600.16415&userlocale=40c&requestID=34D44BD5-B9A4-4702-9FD6-DC904284DAD6
http://l.yimg.com/i/i/fr/ne/z/affai.jpg
mail.google.com:443
http://info.music.metaservices.microsoft.com/cdinfo/GetMDRCDPOSTURL.aspx?locale=40c&geoid=14e&version=12.0.7600.16415&userlocale=40c&requestID=34D44BD5-B9A4-4702-9FD6-DC904284DAD6
http://sn131w.snt131.mail.live.com/att/GetAttachment.aspx?tnail=4&messageId=2a4fe0d2-0e90-11df-aacb-002264c1d610&Aux=4|0|8CC70B411F32950||
http://www.9moisavectoi.com/dukan/dukan%20photos/specialk.jpg
http://info.music.metaservices.microsoft.com/cdinfo/getmdrcd.aspx?locale=40c&geoid=14e&version=12.0.7600.16415&userlocale=40c&requestID=34D44BD5-B9A4-4702-9FD6-DC904284DAD6
http://d.yimg.com/i/ng/ne/lepost/20100130/20/1825180165-ovni-dans-les-pyrenees-un-temoignage-etonnant.jpg?x=130&y=104&q=75&sig=IEIZk1FViLKyXMaafGygyw--
http://d.yimg.com/i/ng/ne/zigonet/20100131/15/3372652854-chine-fabrication-de-la-plus-grande-bouteille-de-vin-du.jpg?x=129&y=130&q=75&wc=250&hc=251&xc=1&yc=16&sig=FSZ9w.qc9F.MKxXoU4xpSQ--
http://sn131w.snt131.mail.live.com/att/GetAttachment.aspx?tnail=6&messageId=2a4fe0d2-0e90-11df-aacb-002264c1d610&Aux=4|0|8CC70B411F32950||
http://212.82.110.111/om/image?appid=6coj375ijcp33&type=icon&v=6
http://212.82.110.111/om/image?appid=36dhk6gp34pb6&type=icon&v=26
http://212.82.110.111/om/image?appid=68c34chgjadj1&type=icon&v=3
http://d.yimg.com/i/ng/ne/lepost/20100130/18/2456168374-revivez-le-massacre-de-la-saint-valentin.jpg
http://212.82.110.111/om/image?appid=3aoj66csm8e1m&type=icon&v=12
http://d.yimg.com/i/ng/ne/zigonet/20100130/17/375560720-indonesie-le-president-vient-de-sortir-son-troisieme-album.jpg?x=129&y=130&q=75&wc=250&hc=251&xc=1&yc=16&sig=ywgzOTz315yRKli1lJCBvA--
http://d.yimg.com/i/ng/ne/zigonet/20100131/13/4065866312-grande-bretagne-il-repeint-une-fiat-500-avec-du-vernis.jpg?x=129&y=130&q=75&wc=250&hc=251&xc=1&yc=16&sig=sflLOTekZMtevQ.rs13jeg--
http://d.yimg.com/i/ng/ne/zigonet/20100130/17/3628123817-etats-unis-elle-tente-de-faire-passer-de-la-cocaine.jpg?x=129&y=130&q=75&wc=250&hc=251&xc=1&yc=16&sig=V8nc6hsuR_OZOssWeGnyhA--
http://s.estat.com/m/web/219031198950?n=7937905760&scw=1280&sch=800&scp=32&r=http%3A%2F%2Flci.tf1.fr%2F&dom=lci.tf1.fr&t=cmspoll&v=2.1&cmsVI=70895073-830&cmsRK=4&cmsST=NetStream.Buffer.Full&cmsPO=8.8&cmsOP=0.56&cmsPS=5&cmsPV=WIN%2010%2C0%2C32%2C18&cmsMV=2.1&cmsME=http%3A%2F%2Fwak.wat.tv%2F2%2FH264-384x288%2F17%2F33%2F3631733.h264%3Fnoseek%26b%3D625%26t%3D8%26bu%3DTF1%26login%3Djt_tf1_weekend%26akauth%3D1264966415_a4cc5190320a12f2275793449bf30f6c&cmsDU=117&cmsPL=flash&cmsEV=polling&cmsSN=3631733_Retour%20sur%20la%20carri%C3%A8re%20de%20Pierre%20Vaneck&cmsS1=catch-up&cmsS2=jt_tf1_weekend&cmsS3=tf1&cmsS4=-&cmsS5=null&cmsGR=genre&cmsSD=0
http://sn131w.snt131.mail.live.com/att/GetAttachment.aspx?tnail=5&messageId=2a4fe0d2-0e90-11df-aacb-002264c1d610&Aux=4|0|8CC70B411F32950||
http://redir.metaservices.microsoft.com/redir/getmdrcdposturlbackground/?locale=40c&geoid=14e&version=12.0.7600.16415&userlocale=40c&requestID=2D06B11B-FC27-4BB0-A495-F7CAF7AA1F15
http://12224307100.channel34.facebook.com/x/1108112764/false/p_1284303378=1
http://www.caplif.nc/
http://www.caplif.nc/caplif.css
http://info.music.metaservices.microsoft.com/cdinfo/GetMDRCDPOSTURL.aspx?locale=40c&geoid=14e&version=12.0.7600.16415&userlocale=40c&requestID=2D06B11B-FC27-4BB0-A495-F7CAF7AA1F15
http://ads.yimg.com/ev/eu/any/mip425moattachmentsfr.gif
http://info.music.metaservices.microsoft.com/cdinfo/getmdrcd.aspx?locale=40c&geoid=14e&version=12.0.7600.16415&userlocale=40c&requestID=2D06B11B-FC27-4BB0-A495-F7CAF7AA1F15
http://www.facebook.com/ajax/f.php?meta=4%3A10%3A247%3A1379241500%3A%3A%3A0%3Alf%3A%3A1353083952026%3A%3A%3A6%3A1%3A6&asyncSignal=8968&post_form_id=4af97c816ae983ef92bf71c6a75d2028
http://www.ouest-france.fr/ofdernmin_-Euro.-La-France-s-impose-en-finale-et-realise-le-triple-historique-_44096-1247078-fils-tous_filDMA.Htm
http://safebrowsing-cache.google.com/safebrowsing/rd/ChFnb29nLXBoaXNoLXNoYXZhchABGMGmAyDgpwMqF0vTAAD_______________________8_MgZB0wAA_wM
http://s2.youtube.com/s?vid=SyzV38jxbP-cn3WfTTWM30Q_Ue5K2gZxR&plid=AAR-eupB6rrOFCga&ns=yt&st=20.155&fmt=34&docid=JcWGNlIGxEo&ctp=2&el=detailpage&yttk=1&et=20.155
http://ad.yieldmanager.com/st?ad_type=iframe&ad_size=300x250&site=167518&section_code=201942519&cb=1264966308737194&yrc=fr&ycg=f&yyob=1983
http://safebrowsing-cache.google.com/safebrowsing/rd/ChFnb29nLXBoaXNoLXNoYXZhchAAGI-MBSCYjAUyBg9GAQD_Aw
http://safebrowsing-cache.google.com/safebrowsing/rd/ChFnb29nLXBoaXNoLXNoYXZhchAAGJmMBSDAjAUqBzBGAQD__wEyBxlGAQD__38
http://noumea.easyrencontre.com/messenger/messPub.php?banners=145|163&login=laventurier98&password=0802&host=http://noumea.sexy.easyrencontre.com
http://www.ouest-france.fr/design/styles/base.css?version=15
http://www.ouest-france.fr/design/images/fd_Body.png
http://content.yieldmanager.com/ak/q.gif
http://bft.zoosnet.net/js/CheckInvite.aspx?id=50890806&sid=6340059041003125003871&d=1264966299942
http://cas.criteo.com/delivery/ajs.php?nodis=1&zoneid=3863&cb=63508359230&charset=utf-8&loc=http%3A//noumea.easyrencontre.com/messenger/messPub.php%3Fbanners%3D145%7C163%26login%3Dlaventurier98%26password%3D0802%26host%3Dhttp%3A//noumea.sexy.easyrencontre.com
http://cas.criteo.com/delivery/lg.php?bannerid=0&campaignid=0&zoneid=3863&cb=3d02ed5862&pb=1
http://ad.z5x.net/imp?Z=234x60&s=785201&_salt=1340000955&B=10&u=http%3A%2F%2Fnoumea.easyrencontre.com%2Fmessenger%2FmessPub.php%3Fbanners%3D145%7C163%26login%3Dlaventurier98%26password%3D0802%26host%3Dhttp%3A%2F%2Fnoumea.sexy.easyrencontre.com&r=1
http://memorix.sdv.fr/RealMedia/ads/adstream_mjx.ads/www.ouest-france.fr/infos/divers_articles/1258677870@TopLeft,TopRight,Position4,Left1,Left2,Position2,Position3,Right,Right1,Right2,x32,x50,Bottom1,BottomLeft,x96,x40,x41,x42?w=1024&h=768&dpt=0
http://www.ouest-france.fr/design/images/dossiers.jpg
http://www.ouest-france.fr/design/images/fd_tetiere.png
http://www.ouest-france.fr/design/images/coin_haut_gauche.png
http://www.ouest-france.fr/design/images/bouton_ok.png
http://memorix.sdv.fr/5/www.ouest-france.fr/infos/divers_articles/1731271250/TopRight/SDV_OFM/default/empty.gif/50515853496b746c3179634142743671?w=1024&h=768&dpt=0
http://memorix.sdv.fr/5/www.ouest-france.fr/infos/divers_articles/259106560/TopLeft/SDV_OFM/default/empty.gif/50515853496b746c3179634142743671?w=1024&h=768&dpt=0
http://memorix.sdv.fr/5/www.ouest-france.fr/infos/divers_articles/1942271976/x96/SDV_OFM/default/empty.gif/50515853496b746c3179634142743671?w=1024&h=768&dpt=0
http://www.ouest-france.fr/photos/2010/01/31/100131115036793_14_000_apz_100__w_ouestfrance_.jpg
http://www.ouest-france.fr/photos/2010/01/31/100131111351341_10_000_apz_100__w_ouestfrance_.jpg
http://www.google.com/
http://www.ouest-france.fr/photos/2010/01/30/100130222742307_77_000_apz_100__w_ouestfrance_.jpg
http://www.ouest-france.fr/photos/2010/01/30/100130223256367_78_000_apz_100__w_ouestfrance_.jpg
http://www.google.com/favicon.ico
http://www.ouest-france.fr/photos/2010/01/30/100130221008433_76_000_apz_100__w_ouestfrance_.jpg
http://www.ouest-france.fr/photos/2010/01/30/100130213538750_73_000_apz_100__w_ouestfrance_.jpg
http://02361862215.channel34.facebook.com/x/2964238854/false/p_1284303378=1
http://memorix.sdv.fr/5/www.ouest-france.fr/infos/divers_articles/1868454903/Position4/SDV_OFM/default/empty.gif/50515853496b746c3179634142743671?w=1024&h=768&dpt=0
http://memorix.sdv.fr/5/www.ouest-france.fr/infos/divers_articles/1518725056/x32/SDV_OFM/default/empty.gif/50515853496b746c3179634142743671?w=1024&h=768&dpt=0
http://memorix.sdv.fr/5/www.ouest-france.fr/infos/divers_articles/866822947/Position2/SDV_OFM/default/empty.gif/50515853496b746c3179634142743671?w=1024&h=768&dpt=0
http://www.google.com/csi?v=3&s=webhp&action=&e=17259,17311,22766,23361&ei=q9plS7PmA4_s7AO73unVAg&expi=17259,17311,22766,23361&imc=1&imn=1&imp=1&rt=prt.110,ol.125,iml.110,xjses.203,xjsee.235,xjsls.235,xjs.250
http://www.ouest-france.fr/photos/2010/01/31/100131105754483_8_000_apz_100__w_ouestfrance_.jpg
http://clients1.google.com/generate_204
http://www.ouest-france.fr/photos/2010/01/30/100130202254045_65_000_apz_100__w_ouestfrance_.jpg
http://www.ouest-france.fr/photos/2010/01/30/100130190114064_58_001_apz_100__w_ouestfrance_.jpg
http://www.ouest-france.fr/photos/2010/01/30/100130172523626_45_000_apz_100__w_ouestfrance_.jpg
http://impfr.tradedoubler.com/imp?type(js)pool(352702)a(1710948)preurl(http://memorix.sdv.fr/RealMedia/ads/click_lx.ads/www.ouest-france.fr/infos/divers_articles/L41/980397921/Position3/SDV_OFM/HC_BU2_POOL_1009_OF_RG/AFFI_SKY_NOKIA_N97_0609_OF.html/50515853496b746c3179634142743671?)
http://memorix.sdv.fr/5/www.ouest-france.fr/infos/divers_articles/48407431/x50/SDV_OFM/default/empty.gif/50515853496b746c3179634142743671?w=1024&h=768&dpt=0
http://www.ouest-france.fr/photos/2010/01/30/100130170040771_40_000_apz_100__w_ouestfrance_.jpg
http://memorix.sdv.fr/5/www.ouest-france.fr/infos/divers_articles/954154394/Left1/SDV_OFM/default/empty.gif/50515853496b746c3179634142743671?w=1024&h=768&dpt=0
http://memorix.sdv.fr/5/www.ouest-france.fr/infos/divers_articles/1914134146/Left2/SDV_OFM/default/empty.gif/50515853496b746c3179634142743671?w=1024&h=768&dpt=0
http://www.ouest-france.fr/photos/2010/01/30/100130113019890_12_000_apz_100__w_ouestfrance_.jpg
http://www.ouest-france.fr/photos/2010/01/31/100131120934603_17_001_apz_100__w_ouestfrance_.jpg
http://www.ouest-france.fr/photos/2010/01/30/100130000750790_58_000_apz_100__w_ouestfrance_.jpg
http://www.ouest-france.fr/photos/2010/01/29/100129232902982_56_001_apz_100__w_ouestfrance_.jpg
http://impfr.tradedoubler.com/imp?type(js)pool(357145)a(1710948)preurl(http://memorix.sdv.fr/RealMedia/ads/click_lx.ads/www.ouest-france.fr/infos/divers_articles/L41/2056664408/Right1/SDV_OFM/HC_SKY_POOL_1009_OF_RG/AFFI_SKY_NOKIA_N97_0609_OF.html/50515853496b746c3179634142743671?)
http://www.ouest-france.fr/photos/2010/01/29/100129202632745_45_000_apz_100__w_ouestfrance_.jpg
http://www.ouest-france.fr/photos/2010/01/30/100129193212788_43_000_apz_100__w_ouestfrance_.jpg
http://www.ouest-france.fr/photos/2010/01/29/100129175905938_19_000_apz_100__w_ouestfrance_.jpg
http://www.ouest-france.fr/photos/2010/01/30/100130001244630_59_000_apz_100__w_ouestfrance_.jpg
http://www.ouest-france.fr/photos/2010/01/29/100129230816055_54_000_apz_100__w_ouestfrance_.jpg
http://memorix.sdv.fr/5/www.ouest-france.fr/infos/divers_articles/226160240/Right/SDV_OFM/default/empty.gif/50515853496b746c3179634142743671?w=1024&h=768&dpt=0
http://www.ouest-france.fr/photos/2010/01/29/100129221238924_49_001_apz_100__w_ouestfrance_.jpg
http://www.ouest-france.fr/galerie/24/PHOTO_123341_apx_120_.jpg
http://www.ouest-france.fr/galerie/24/PHOTO_123524_apx_120_.jpg
http://www.ouest-france.fr/photos/2010/01/28/P1212008D1243650G_px_140__w_ouestfrance_.jpg
http://s.estat.com/m/web/219031198950?n=7215583338&scw=1280&sch=800&scp=32&r=http%3A%2F%2Flci.tf1.fr%2F&dom=lci.tf1.fr&t=cmspoll&v=2.1&cmsVI=70895073-830&cmsRK=5&cmsST=NetStream.Buffer.Full&cmsPO=18.785&cmsOP=8.8&cmsPS=5&cmsPV=WIN%2010%2C0%2C32%2C18&cmsMV=2.1&cmsME=http%3A%2F%2Fwak.wat.tv%2F2%2FH264-384x288%2F17%2F33%2F3631733.h264%3Fnoseek%26b%3D625%26t%3D8%26bu%3DTF1%26login%3Djt_tf1_weekend%26akauth%3D1264966415_a4cc5190320a12f2275793449bf30f6c&cmsDU=117&cmsPL=flash&cmsEV=polling&cmsSN=3631733_Retour%20sur%20la%20carri%C3%A8re%20de%20Pierre%20Vaneck&cmsS1=catch-up&cmsS2=jt_tf1_weekend&cmsS3=tf1&cmsS4=-&cmsS5=null&cmsGR=genre&cmsSD=0
http://www.ouest-france.fr/photos/2010/01/29/100129161818661_91_000_apz_100__w_ouestfrance_.jpg
http://www.ouest-france.fr/galerie/24/PHOTO_123469_apx_120_.jpg
http://www.ouest-france.fr/photos/2010/01/27/P1211317D1242819G_px_140__w_ouestfrance_.jpg
http://www.ouest-france.fr/photos/2010/01/31/100131193824402_79_000_apz_100__w_ouestfrance_.jpg
http://www.ouest-france.fr/photos/2010/01/31/100131190138645_64_000_apz_100__w_ouestfrance_.jpg
http://www.ouest-france.fr/photos/2010/01/31/100131190142881_65_001_apz_100__w_ouestfrance_.jpg
http://memorix.sdv.fr/5/www.ouest-france.fr/infos/divers_articles/143561069/Right2/SDV_OFM/default/empty.gif/50515853496b746c3179634142743671?w=1024&h=768&dpt=0
http://www.ouest-france.fr/photos/2010/01/28/P1211926D1243560G_px_140__w_ouestfrance_.jpg
http://www.ouest-france.fr/photos/2010/01/31/100131144646598_27_001_apz_100__w_ouestfrance_.jpg
http://www.ouest-france.fr/photos/2010/01/31/100131100621368_3_001_apz_100__w_ouestfrance_.jpg
http://www.ouest-france.fr/photos/2010/01/31/100131122952015_18_000_apz_100__w_ouestfrance_.jpg
http://www.ouest-france.fr/design/images/btnMenuAccueil.gif
http://impfr.tradedoubler.com/imp?type(js)pool(352441)a(1710948)preurl(http://memorix.sdv.fr/RealMedia/ads/click_lx.ads/www.ouest-france.fr/infos/divers_articles/L41/1999600754/Bottom1/SDV_OFM/HC_FT_MG_POOL_0909_OF_RG/AFFI_SKY_NOKIA_N97_0609_OF.html/50515853496b746c3179634142743671?)
http://www.ouest-france.fr/design/images/menuSepa.gif
http://clients1.google.com/complete/search?hl=fr&q=s&cp=1
http://www.ouest-france.fr/design/images/fd_Conteneur.gif
http://www.ouest-france.fr/design/images/btnG.png
http://www.ouest-france.fr/design/images/fd_ulToutLeJournal.png
http://www.ouest-france.fr/design/images/fd_AToutLeJournal.png
http://www.ouest-france.fr/design/images/dma_juillet2009/ongletselected2_202x28.gif
http://www.ouest-france.fr/design/images/logoRSS.gif
http://www.ouest-france.fr/design/images/dma_juillet2009/onglet3_98x28.gif
http://www.ouest-france.fr/photos/2010/01/29/P1212743D1244634G_px_140__w_ouestfrance_.jpg
http://memorix.sdv.fr/5/www.ouest-france.fr/infos/divers_articles/L41/980397921/Position3/SDV_OFM/HC_BU2_POOL_1009_OF_RG/AFFI_SKY_NOKIA_N97_0609_OF.html/50515853496b746c3179634142743671?_RM_EMPTY_&w=1024&h=768&dpt=0
http://memorix.sdv.fr/5/www.ouest-france.fr/infos/divers_articles/L41/2056664408/Right1/SDV_OFM/HC_SKY_POOL_1009_OF_RG/AFFI_SKY_NOKIA_N97_0609_OF.html/50515853496b746c3179634142743671?_RM_EMPTY_&w=1024&h=768&dpt=0
http://www.ouest-france.fr/design/javascripts/thickbox-3.1/loadingAnimation.gif
http://clients1.google.com/complete/search?hl=fr&q=sy&cp=2
http://www.google-analytics.com/__utm.gif?utmwv=4.6.5&utmn=255152630&utmhn=www.ouest-france.fr&utmcs=UTF-8&utmsr=1024x768&utmsc=24-bit&utmul=fr&utmje=0&utmfl=10.0%20r42&utmdt=ouest-france.fr%20-Euro.%20La%20France%20s%27impose%20en%20finale%20et%20r%C3%A9alise%20le%20tripl%C3%A9%20historique%20!%20-%20Autriche%20-%20Handball&utmhid=469775752&utmr=0&utmp=%2Fofdernmin_-Euro.-La-France-s-impose-en-finale-et-realise-le-triple-historique-_44096-1247078-fils-tous_filDMA.Htm&utmac=UA-268772-8&utmcc=__utma%3D88432901.1171500155.1264965459.1264965459.1264965459.1%3B%2B__utmz%3D88432901.1264965459.1.1.utmcsr%3D(direct)%7Cutmccn%3D(direct)%7Cutmcmd%3D(none)%3B
http://bft.zoosnet.net/js/CheckInvite.aspx?id=50890806&sid=6340059041003125003871&d=1264966307043
http://memorix.sdv.fr/5/www.ouest-france.fr/infos/divers_articles/L41/1999600754/Bottom1/SDV_OFM/HC_FT_MG_POOL_0909_OF_RG/AFFI_SKY_NOKIA_N97_0609_OF.html/50515853496b746c3179634142743671?_RM_EMPTY_&w=1024&h=768&dpt=0
http://memorix.sdv.fr/5/www.ouest-france.fr/infos/divers_articles/L41/897832436/x40/SDV_OFM/PX0_TEMOIN_P2M_1108_OF_RG/px0.gif/50515853496b746c3179634142743671?w=1024&h=768&dpt=0
http://memorix.sdv.fr/5/www.ouest-france.fr/infos/divers_articles/56666136/BottomLeft/SDV_OFM/default/empty.gif/50515853496b746c3179634142743671?w=1024&h=768&dpt=0
http://clients1.google.com/complete/search?hl=fr&q=syb&cp=3
http://memorix.sdv.fr/5/www.ouest-france.fr/infos/divers_articles/L41/1777126361/x42/SDV_OFM/PX2_TEMOIN_P2M_1008_OF_RG/px0.gif/50515853496b746c3179634142743671?w=1024&h=768&dpt=0
http://pub.wamland.nc/www/delivery/afr.php?refresh=45&zoneid=1&target=_blank&loc=http%3A%2F%2Fwww.annonces-nc.com%2Fannonces-3.htm
http://pub.wamland.nc/www/delivery/lg.php?bannerid=21&campaignid=34&zoneid=1&loc=http%3A%2F%2Fwww.annonces-nc.com%2Fannonces-3.htm&cb=7bc2266dab
http://logc1.xiti.com/hit.xiti?s=61164&s2=1&p=euro_-la-france-s-impose-en-finale-et-realise-le-triple-historique-&hl=6x31x58&lng=fr&vtag=34002&idp=0631581878705&jv=0&r=1024x768x24x24&re=1024x578&ref=http://www.ouest-france.fr/region/paysdelaloire_detail_-Bio-les-Pays-de-la-Loire-font-la-course-en-tete-_8620-1239821_actu.Htm
http://0.channel53.facebook.com/x/888177119/true/p_641574107=0
http://s2.youtube.com/s?vid=SyzV38jxbP-cn3WfTTWM30Q_Ue5K2gZxR&plid=AAR-eupB6rrOFCga&ns=yt&st=30.186&fmt=34&docid=JcWGNlIGxEo&ctp=3&el=detailpage&yttk=1&et=30.186
http://clients1.google.com/complete/search?hl=fr&q=syn&cp=3
http://memorix.sdv.fr/5/www.ouest-france.fr/infos/divers_articles/L41/621513747/x41/SDV_OFM/PX1_TEMOIN_P2M_1008_OF_actuTotal/px0.gif/50515853496b746c3179634142743671?w=1024&h=768&dpt=0
http://s.estat.com/m/web/219031198950?n=6225851923&scw=1280&sch=800&scp=32&r=http%3A%2F%2Flci.tf1.fr%2F&dom=lci.tf1.fr&t=cmspoll&v=2.1&cmsVI=48961853-6870&cmsRK=18&cmsST=NetStream.Play.Stop&cmsPO=68.672&cmsOP=68.672&cmsPS=12&cmsPV=WIN%2010%2C0%2C32%2C18&cmsMV=2.1&cmsME=http%3A%2F%2Fwak.wat.tv%2F2%2FH264-384x288%2F76%2F15%2F3627615.h264%3Fnoseek%26b%3D440%26t%3D8%26bu%3DTF1%26login%3Djt_tf1_weekend%26akauth%3D1264966019_db66863fa4ef4b874ccb42320dc5d775&cmsDU=117&cmsPL=flash&cmsEV=polling&cmsSN=3631733_Retour%20sur%20la%20carri%C3%A8re%20de%20Pierre%20Vaneck&cmsS1=catch-up&cmsS2=jt_tf1_weekend&cmsS3=tf1&cmsS4=-&cmsS5=null&cmsGR=genre&cmsSD=0
http://clients1.google.com/complete/search?hl=fr&q=synd&cp=4
http://clients1.google.com/complete/search?hl=fr&q=syndr&cp=5
http://l.yimg.com/a/a/1-/flash/promotions/fr/intl/091230/50x50mpl.jpg
http://l.yimg.com/i/i/fr/tv/s/them28.jpg
http://clients1.google.com/complete/search?hl=fr&q=syndro&cp=6
http://s.estat.com/m/web/219031198950?n=1257261802&scw=1280&sch=800&scp=32&r=http%3A%2F%2Flci.tf1.fr%2F&dom=lci.tf1.fr&t=cmspoll&v=2.1&cmsVI=75217093-3205&cmsRK=22&cmsST=NetStream.Play.Stop&cmsPO=0&cmsOP=0&cmsPS=12&cmsPV=WIN%2010%2C0%2C32%2C18&cmsMV=2.1&cmsME=http%3A%2F%2Fwak.wat.tv%2F2%2FH264-384x288%2F18%2F31%2F3631831.h264%3Fnoseek%26b%3D773%26t%3D8%26bu%3DTF1%26login%3Djt_tf1_weekend%26akauth%3D1264966019_24f5ca7db1871245c345a59bbe063e2e&cmsDU=117&cmsPL=flash&cmsEV=polling&cmsSN=3631733_Retour%20sur%20la%20carri%C3%A8re%20de%20Pierre%20Vaneck&cmsS1=catch-up&cmsS2=jt_tf1_weekend&cmsS3=tf1&cmsS4=-&cmsS5=null&cmsGR=genre&cmsSD=0
http://clients1.google.com/complete/search?hl=fr&q=syndrom&cp=7
http://view.atdmt.com/D9I/view/194299693/direct/01/
http://l.yimg.com/a/combo?metro/uiplugins/autohide_service_0.1.9.js&metro/uiplugins/iframeshim_service_0.0.13.js&arc/util/ylc_1.8.17.js&metro/uiplugins/instrumentation_service_0.1.11.js&metro/uiplugins/statemgr_service_0.1.11.js&metro/uiplugins/toolbar_bridge_service_0.1.15.js&metro/uiplugins/tooltip_service_0.1.32.js&arc/framework/transport_0.1.70.js&metro/pa/pa_0.1.179.js&metro/navbar/navbar_0.1.70.js&metro/tuc/tuc_0.0.18.js&metro/uiplugins/aria_service_0.1.12.js&metro/uiplugins/tablist_service_0.1.27.js&metro/masthead/masthead_0.2.95.js&metro/sda/sda_bridge_service_0.0.4.js&metro/sda/sda_deferred_service_0.0.12.js&metro/sda/sda_transport_0.0.8.js&metro/uiplugins/metrologger_service_0.1.9.js&metro/sda/sda_0.1.36.js&metro/uiplugins/carousel_service_0.1.36.js&metro/fptoday/fptoday_hover_0.1.50.js&metro/uiplugins/ulm_service_0.1.31.js&metro/news/news_0.1.35.js&metro/marketindices/marketindices_0.1.17.js&metro/contentcarousel/contentcarousel_0.1.37.js&metro/uiplugins/metro_ext_arcade_0.1.8.js&metro/uiplugins/userinfo_service_0.1.7.js&metro/uiplugins/metro_viewtype_0.1.13.js&metro/uiplugins/default_viewtype_0.1.48.js&metro/uiplugins/edit_viewtype_0.1.31.js&metro/uiplugins/pa_viewtype_0.1.5.js&metro/fp/fp_0.1.56.js&metro/uiplugins/metrics_service_0.1.5.js&metro/uiplugins/metro_performance_0.1.6.js
http://spe.atdmt.com/images/pixel.gif
http://clients1.google.com/complete/search?hl=fr&q=syndrome&cp=8
http://clients1.google.com/complete/search?hl=fr&q=syndrome%20&cp=9
http://clients1.google.com/complete/search?hl=fr&q=syndrome%20a&cp=10
http://03528677274.channel14.facebook.com/x/3348570623/false/p_1513476207=0
http://clients1.google.com/complete/search?hl=fr&q=syndrome%20ap&cp=11
http://www.ouest-france.fr/design/images/btnMenuHover.gif
http://clients1.google.com/complete/search?hl=fr&q=syndrome%20apn&cp=12
http://bft.zoosnet.net/js/CheckInvite.aspx?id=50890806&sid=6340059041003125003871&d=1264966314137
http://clients1.google.com/complete/search?hl=fr&q=syndrome%20apn%C3%A9&cp=13
http://clients1.google.com/complete/search?hl=fr&q=syndrome%20apn%C3%A9e&cp=14
http://clients1.google.com/complete/search?hl=fr&q=syndrome%20apn%C3%A9e%20&cp=15
http://clients1.google.com/complete/search?hl=fr&q=syndrome%20apn%C3%A9e%20d&cp=16
http://clients1.google.com/complete/search?hl=fr&q=syndrome%20apn%C3%A9e%20du&cp=17
http://clients1.google.com/complete/search?hl=fr&q=syndrome%20apn%C3%A9e%20du%20&cp=18
http://memorix.sdv.fr/RealMedia/ads/adstream_mjx.ads/www.ouest-france.fr/infos/bretagne/1662823648@Position4,Left1,Left2,Position1,Position2,Position3,Right,Right1,Right2,x32,Bottom1,BottomLeft,x40,x41,x42?w=1024&h=768&dpt=0
http://clients1.google.com/complete/search?hl=fr&q=syndrome%20apn%C3%A9e%20du%20s&cp=19
http://clients1.google.com/complete/search?hl=fr&q=syndrome%20apn%C3%A9e%20du%20so&cp=20
http://clients1.google.com/complete/search?hl=fr&q=syndrome%20apn%C3%A9e%20du%20som&cp=21
http://memorix.sdv.fr/5/www.ouest-france.fr/infos/bretagne/922809545/Position4/SDV_OFM/default/empty.gif/50515853496b746c3179634142743671?w=1024&h=768&dpt=0
http://memorix.sdv.fr/5/www.ouest-france.fr/infos/bretagne/1509815827/Position1/SDV_OFM/default/empty.gif/50515853496b746c3179634142743671?w=1024&h=768&dpt=0
s.yimg.com:443
s.yimg.com:443
s.yimg.com:443
s.yimg.com:443
http://clients1.google.com/complete/search?hl=fr&q=syndrome%20apn%C3%A9e%20du%20somm&cp=22
http://memorix.sdv.fr/5/www.ouest-france.fr/infos/bretagne/1353838791/x32/SDV_OFM/default/empty.gif/50515853496b746c3179634142743671?w=1024&h=768&dpt=0
http://memorix.sdv.fr/5/www.ouest-france.fr/infos/bretagne/596917800/Left1/SDV_OFM/default/empty.gif/50515853496b746c3179634142743671?w=1024&h=768&dpt=0
http://memorix.sdv.fr/5/www.ouest-france.fr/infos/bretagne/1746539092/Position2/SDV_OFM/default/empty.gif/50515853496b746c3179634142743671?w=1024&h=768&dpt=0
http://memorix.sdv.fr/5/www.ouest-france.fr/infos/bretagne/569086390/Left2/SDV_OFM/default/empty.gif/50515853496b746c3179634142743671?w=1024&h=768&dpt=0
http://impfr.tradedoubler.com/imp?type(js)pool(352702)a(1710948)preurl(http://memorix.sdv.fr/RealMedia/ads/click_lx.ads/www.ouest-france.fr/infos/bretagne/L34/1268644092/Position3/SDV_OFM/HC_BU2_POOL_1009_OF_RG/AFFI_SKY_NOKIA_N97_0609_OF.html/50515853496b746c3179634142743671?)
s.yimg.com:443
http://clients1.google.com/complete/search?hl=fr&q=syndrome%20apn%C3%A9e%20du%20somme&cp=23
s.yimg.com:443
http://clients1.google.com/complete/search?hl=fr&q=syndrome%20apn%C3%A9e%20du%20sommei&cp=24
s.yimg.com:443
http://memorix.sdv.fr/5/www.ouest-france.fr/infos/bretagne/L34/1268644092/Position3/SDV_OFM/HC_BU2_POOL_1009_OF_RG/AFFI_SKY_NOKIA_N97_0609_OF.html/50515853496b746c3179634142743671?_RM_EMPTY_&w=1024&h=768&dpt=0
s.yimg.com:443
s.yimg.com:443
s.yimg.com:443
http://clients1.google.com/complete/search?hl=fr&q=syndrome%20apn%C3%A9e%20du%20sommeil&cp=25
http://memorix.sdv.fr/5/www.ouest-france.fr/infos/bretagne/1683422955/Right/SDV_OFM/default/empty.gif/50515853496b746c3179634142743671?w=1024&h=768&dpt=0
http://impfr.tradedoubler.com/imp?type(js)pool(357145)a(1710948)preurl(http://memorix.sdv.fr/RealMedia/ads/click_lx.ads/www.ouest-france.fr/infos/bretagne/L34/822310298/Right1/SDV_OFM/HC_SKY_POOL_1009_OF_RG/AFFI_SKY_NOKIA_N97_0609_OF.html/50515853496b746c3179634142743671?)
s.yimg.com:443
s.yimg.com:443
s.yimg.com:443
http://memorix.sdv.fr/5/www.ouest-france.fr/infos/bretagne/L34/822310298/Right1/SDV_OFM/HC_SKY_POOL_1009_OF_RG/AFFI_SKY_NOKIA_N97_0609_OF.html/50515853496b746c3179634142743671?_RM_EMPTY_&w=1024&h=768&dpt=0
http://memorix.sdv.fr/5/www.ouest-france.fr/infos/bretagne/1682195595/Right2/SDV_OFM/default/empty.gif/50515853496b746c3179634142743671?w=1024&h=768&dpt=0
http://rad.msn.com/ADSAdClient31.dll?GetAd=&PG=IMSFRF&AP=1007
http://impfr.tradedoubler.com/imp?type(js)pool(352441)a(1710948)preurl(http://memorix.sdv.fr/RealMedia/ads/click_lx.ads/www.ouest-france.fr/infos/bretagne/L34/674153630/Bottom1/SDV_OFM/HC_FT_MG_POOL_0909_OF_RG/AFFI_SKY_NOKIA_N97_0609_OF.html/50515853496b746c3179634142743671?)
http://www.google-analytics.com/__utm.gif?utmwv=4.6.5&utmn=262080301&utmhn=www.ouest-france.fr&utmcs=UTF-8&utmsr=1024x768&utmsc=24-bit&utmul=fr&utmje=0&utmfl=10.0%20r42&utmdt=ouest-france.fr%20-%20Bio%C2%A0%3A%20les%20Pays%20de%20la%20Loire%20font%20la%20course%20en%20t%C3%AAte&utmhid=2114338613&utmr=-&utmp=%2Fregion%2Fpaysdelaloire_detail_-Bio-les-Pays-de-la-Loire-font-la-course-en-tete-_8620-1239821_actu.Htm&utmac=UA-268772-8&utmcc=__utma%3D88432901.1171500155.1264965459.1264965459.1264965459.1%3B%2B__utmz%3D88432901.1264965459.1.1.utmcsr%3D(direct)%7Cutmccn%3D(direct)%7Cutmcmd%3D(none)%3B
http://view.atdmt.com/AMF/iview/msnnkmfr001234x60XimsfrfXunknown0000024amf/direct;wi.234;hi.60/01
http://spe.atdmt.com/b/A2AMFMSNFCB2/MBFII_10sons_234x60_001.jpg
http://memorix.sdv.fr/5/www.ouest-france.fr/infos/bretagne/L34/674153630/Bottom1/SDV_OFM/HC_FT_MG_POOL_0909_OF_RG/AFFI_SKY_NOKIA_N97_0609_OF.html/50515853496b746c3179634142743671?_RM_EMPTY_&w=1024&h=768&dpt=0
http://updates.installshield.com/Ping.asp
http://memorix.sdv.fr/5/www.ouest-france.fr/infos/bretagne/L34/1325341318/x40/SDV_OFM/PX0_TEMOIN_P2M_1108_OF_RG/px0.gif/50515853496b746c3179634142743671?w=1024&h=768&dpt=0
http://memorix.sdv.fr/5/www.ouest-france.fr/infos/bretagne/1745679604/x41/SDV_OFM/default/empty.gif/50515853496b746c3179634142743671?w=1024&h=768&dpt=0
http://memorix.sdv.fr/5/www.ouest-france.fr/infos/bretagne/L34/295588672/x42/SDV_OFM/PX2_TEMOIN_P2M_1008_OF_RG/px0.gif/50515853496b746c3179634142743671?w=1024&h=768&dpt=0
http://memorix.sdv.fr/5/www.ouest-france.fr/infos/bretagne/1315109746/BottomLeft/SDV_OFM/default/empty.gif/50515853496b746c3179634142743671?w=1024&h=768&dpt=0
http://logc1.xiti.com/hit.xiti?s=61164&s2=4&p=bio-les-pays-de-la-loire-font-la-course-en-tete-&hl=6x32x10&lng=fr&vtag=34002&idp=0632109925332&jv=0&r=1024x768x24x24&re=1024x578&ref=
http://www.google.com/search?hl=fr&source=hp&q=syndrome+apn%C3%A9e+du+sommeil&lr=&aq=f&oq=
http://clients1.google.com/generate_204
s.yimg.com:443
http://safebrowsing.clients.google.com/safebrowsing/downloads?client=navclient-auto-ffox&appver=3.5.7&pver=2.2&wrkey=AKEgNisBllgyY_s1osj5PCy4h5rCZRoogMamNA_atcHjX2_ePk3nproVJzqgQc_czS6YdmbggeWxRmBNdiHTZNDOlmnflk1UFQ==
http://safebrowsing-cache.google.com/safebrowsing/rd/ChNnb29nLW1hbHdhcmUtc2hhdmFyEAEY2OIBINziASoFWnEAAAcyBVhxAAAD
http://www.google.com/csi?v=3&s=web&action=&e=17259,17311,22766,23361&ei=vNplS-CzFM-GkAWSpODSCg&expi=17259,17311,22766,23361&imc=1&imn=1&imp=0&rt=prt.328,ol.359,iml.328,xjses.375,xjsee.375,xjsls.390,xjs.406
http://id.google.com/verify/EAAAAFpTMFSng57jC1XMQUgQSmY.gif
http://bft.zoosnet.net/js/CheckInvite.aspx?id=50890806&sid=6340059041003125003871&d=1264966321236
http://api.mywot.com/0.4/query?id=1103083ab626f69496e1e55ac105d46a65b19da5&nonce=939fef86ad096c24064ca586de5dd4adc6afc9be&target=uHizara07D6zKhsmaoZ8&lang=fr-FR&version=firefox-20091028&auth=25ca4557c18bc9124f8ced3e1ac11f23ad930aa1
http://safebrowsing-cache.google.com/safebrowsing/rd/ChNnb29nLW1hbHdhcmUtc2hhdmFyEAAYrowBILKMASoFL0YAAA8yBS5GAAAB
http://safebrowsing-cache.google.com/safebrowsing/rd/ChFnb29nLXBoaXNoLXNoYXZhchAAGK2MBSDAjAUqBzBGAQD__wEyBS1GAQAH
http://updates.installshield.com/Version.asp?format=PLAIN&v=ISUA%206.00&u={72DE8168-961C-40B7-97B9-C8D0DE3D127B}&tr={9CA8315E-DFFF-439A-9E31-46D0C32D50EF}
http://www.facebook.com/ajax/intent.php?filter=lf&oldest=1264941940&use_primer=1&__a=1
http://gweb.4octets.co.uk/skulls.php?ip=192.168.1.2%3A12071&url=http%3A%2F%2Fgwc.lame.net%2Fgwcii.php&client=SZZZ&version=5.3.6&update=1
http://profile.ak.fbcdn.net/v22944/1944/43/q100000202647787_5796.jpg
http://external.ak.fbcdn.net/safe_image.php?d=6ff5d2e494a9b80d8c50be2ddcc43a18&url=http%3A%2F%2Fi.ytimg.com%2Fvi%2Fr5UhDtg6glk%2F2.jpg&w=90&h=90
http://updates.installshield.com/GetMessages.asp?P={F428D0FB-765D-40EB-BDD8-A1E7F5C597FA}&R=4.60&L=1033&K=ZCEBCB7A8D9ABA0385EACB71899EC978FBE8C108FDE8BB78FCE4C279FF90B80D8C99BB098D9AC&xml=YES&log=1&v=ISUA%206.00&u={72DE8168-961C-40B7-97B9-C8D0DE3D127B}&tr={0A6EDA1E-37EA-4D92-978C-9F0CE1068120}
http://watson.microsoft.com/StageOne/iexplore_exe/8_0_7600_16385/4a5bc69e/StackHash_abcc/0_0_0_0/00000000/c00000fd/72dbe294.htm?LCID=1036&OS=6.1.7600.2.00010300.0.0.3.16385&SM=TOSHIBA&SPN=Satellite%20L550&BV=V1.70&MRK=TOSHIBA_Satellite%20L550_10187-FR_PSLW8E-00X00&MID=AA794E18-4E4A-4D90-8DF1-07851BBA8937
http://clients3.google.com/sidewiki/client/cmd/annotations
http://csi.gstatic.com/csi?v=3&s=annotateweb&action=annotations&tran=-5&rt=il.278
http://toolbarqueries.google.com/search?features=Rank&sourceid=navclient-ff&client=navclient-auto-ff&googleip=O;210.8.185.147;391&iqrn=H5cD&querytime=aCC&orig=0WVjQ&swwk=355&ch=8207d9663&q=info:http%3A%2F%2Fwww.9moisavectoi.com%2Fdukan%2Fhypo1.htm
http://clients3.google.com/sidewiki/client/cmd/annotations
http://toolbarqueries.google.com/search?features=Rank&sourceid=navclient-ff&client=navclient-auto-ff&googleip=O;210.8.185.147;308&iqrn=MYpD&querytime=eB&orig=02RO3&swwk=355&ch=81a80b876&q=info:http%3A%2F%2Fwww.9moisavectoi.com%2Fdukan%2Fsoupe%2520aux%2520chouB.htm
http://csi.gstatic.com/csi?v=3&s=annotateweb&action=annotations&tran=-5&rt=il.232
http://clients3.google.com/sidewiki/client/cmd/annotations
http://s.estat.com/m/web/219031198950?n=9413689170&scw=1280&sch=800&scp=32&r=http%3A%2F%2Flci.tf1.fr%2F&dom=lci.tf1.fr&t=cmspoll&v=2.1&cmsVI=70895073-830&cmsRK=6&cmsST=NetStream.Buffer.Full&cmsPO=38.847&cmsOP=18.785&cmsPS=5&cmsPV=WIN%2010%2C0%2C32%2C18&cmsMV=2.1&cmsME=http%3A%2F%2Fwak.wat.tv%2F2%2FH264-384x288%2F17%2F33%2F3631733.h264%3Fnoseek%26b%3D625%26t%3D8%26bu%3DTF1%26login%3Djt_tf1_weekend%26akauth%3D1264966415_a4cc5190320a12f2275793449bf30f6c&cmsDU=117&cmsPL=flash&cmsEV=polling&cmsSN=3631733_Retour%20sur%20la%20carri%C3%A8re%20de%20Pierre%20Vaneck&cmsS1=catch-up&cmsS2=jt_tf1_weekend&cmsS3=tf1&cmsS4=-&cmsS5=null&cmsGR=genre&cmsSD=0
http://lci.tf1.fr/js/filNews/filNewsDonneesJson/0,,,00.js?dateDebut=31012010&dateFin=01022010&unvId=1&rubId=2744630&chaineId=2716097&gabMini=1690&vers=10&nbMaxTeaser=5
http://www.fortboyard-lejeu.com/flv/ambiance.mp3
http://toolbarqueries.google.com/search?features=Rank&sourceid=navclient-ff&client=navclient-auto-ff&googleip=O;210.8.185.147;220&iqrn=f-3&querytime=tB&orig=0GDW6&swwk=355&ch=8a917543e&q=info:http%3A%2F%2Fwww.google.com%2Fsearch%3Fhl%3Dfr%26client%3Dfirefox-a%26rlz%3D1R1GGGL_fr%26hs%3DPzK%26q%3Dsoupe%2Bchoux%2Bdukan%26revid%3D452665520%26ei%3DgNRlS8SKAYHg7APjydEY%26sa%3DX%26oi%3Drevisions_inline%26resnum%3D0%26ct%3Dbroad-revision%26cd%3D2%26ved%3D0CDkQ1QIoAQ
http://csi.gstatic.com/csi?v=3&s=annotateweb&action=annotations&tran=-5&rt=il.315
http://updates.installshield.com/Ping.asp
http://s.estat.com/m/web/219031198950?n=170548842&scw=1280&sch=800&scp=32&r=http%3A%2F%2Flci.tf1.fr%2F&dom=lci.tf1.fr&t=cmspoll&v=2.1&cmsVI=31088915-7258&cmsRK=25&cmsST=NetStream.Play.Stop&cmsPO=40.92&cmsOP=40.92&cmsPS=12&cmsPV=WIN%2010%2C0%2C32%2C18&cmsMV=2.1&cmsME=http%3A%2F%2Fwak.wat.tv%2F2%2FH264-384x288%2F09%2F09%2F3630909.h264%3Fnoseek%26b%3D337%26t%3D8%26bu%3DTF1%26login%3DLCIWAT%26akauth%3D1264965677_3d5a03adc7c90aaf2282de87911dc8c8&cmsDU=117&cmsPL=flash&cmsEV=polling&cmsSN=3631733_Retour%20sur%20la%20carri%C3%A8re%20de%20Pierre%20Vaneck&cmsS1=catch-up&cmsS2=jt_tf1_weekend&cmsS3=tf1&cmsS4=-&cmsS5=null&cmsGR=genre&cmsSD=0
http://s.estat.com/m/web/219031198950?n=4519307939&scw=1280&sch=800&scp=32&r=http%3A%2F%2Flci.tf1.fr%2F&dom=lci.tf1.fr&t=cmspoll&v=2.1&cmsVI=16255926-532&cmsRK=33&cmsST=NetStream.Play.Stop&cmsPO=0&cmsOP=0&cmsPS=12&cmsPV=WIN%2010%2C0%2C32%2C18&cmsMV=2.1&cmsME=http%3A%2F%2Fwak.wat.tv%2F2%2FH264-384x288%2F17%2F33%2F3631733.h264%3Fnoseek%26b%3D625%26t%3D8%26bu%3DTF1%26login%3Djt_tf1_weekend%26akauth%3D1264965557_03c8afe0b0ee2974a68182e2b37ad761&cmsDU=117&cmsPL=flash&cmsEV=polling&cmsSN=3631733_Retour%20sur%20la%20carri%C3%A8re%20de%20Pierre%20Vaneck&cmsS1=catch-up&cmsS2=jt_tf1_weekend&cmsS3=tf1&cmsS4=-&cmsS5=null&cmsGR=genre&cmsSD=0
http://duduche.unblog.fr/2007/05/13/soupe-miraculeuse/
http://bft.zoosnet.net/js/CheckInvite.aspx?id=50890806&sid=6340059041003125003871&d=1264966328348
http://s.estat.com/m/web/219031198950?n=6418823004&scw=1280&sch=800&scp=32&r=http%3A%2F%2Flci.tf1.fr%2F&dom=lci.tf1.fr&t=cmspoll&v=2.1&cmsVI=43313849-6884&cmsRK=23&cmsST=NetStream.Play.Stop&cmsPO=0&cmsOP=0&cmsPS=12&cmsPV=WIN%2010%2C0%2C32%2C18&cmsMV=2.1&cmsME=http%3A%2F%2Fwak.wat.tv%2F2%2FH264-384x288%2F17%2F35%2F3631735.h264%3Fnoseek%26b%3D671%26t%3D8%26bu%3DTF1%26login%3Djt_tf1_weekend%26akauth%3D1264965678_36b477b9ba552a7d7341b291e341ae46&cmsDU=117&cmsPL=flash&cmsEV=polling&cmsSN=3631733_Retour%20sur%20la%20carri%C3%A8re%20de%20Pierre%20Vaneck&cmsS1=catch-up&cmsS2=jt_tf1_weekend&cmsS3=tf1&cmsS4=-&cmsS5=null&cmsGR=genre&cmsSD=0
http://tools.google.com/service/update2?w=3:A2rCfxk6zZKfdeJBQv2CCebpFsypp6u86WSFVWvm41pVdr-zt0_coviTaY5vRQ-cfPhEz5odBD05CNfojRPLyO71uhlo93AuJDa-jU17nYWHpep9eY1l-JwfVKkK7qdNY5BoVfzdpzgO97F9NMiQHsKe4F6MBvIPBcTt_qRNrA4
http://safebrowsing-cache.google.com/safebrowsing/rd/ChNnb29nLW1hbHdhcmUtc2hhdmFyEAEY0-IBINziASoFWnEAAAcyBVNxAAB_
http://www.google.com/generate_204
http://suggestqueries.google.com/complete/search?output=firefox&client=firefox&hl=fr&q=apple+
urs.microsoft.com:443
urs.microsoft.com:443
http://suggestqueries.google.com/complete/search?output=firefox&client=firefox&hl=fr&q=a
http://suggestqueries.google.com/complete/search?output=firefox&client=firefox&hl=fr&q=ar
http://suggestqueries.google.com/complete/search?output=firefox&client=firefox&hl=fr&q=arret
http://suggestqueries.google.com/complete/search?output=firefox&client=firefox&hl=fr&q=apple+t
http://w98.slashkey.com/facebook/farm/ajax.php?do=buy_batch&ats=1264966334&uid=1025570649&platform=facebook&call_sig=f6f2017074941b845d43ebd9737e9b9e&call_sig_time=1264964819&fb_sig_in_iframe=1&fb_sig_iframe_key=c16a5320fa475530d9583c34fd356ef5&fb_sig_locale=fr_FR&fb_sig_in_new_facebook=1&fb_sig_time=1264964814.3665&fb_sig_added=1&fb_sig_profile_update_time=1256753211&fb_sig_expires=1264971600&fb_sig_user=1025570649&fb_sig_session_key=2.Ex5TCHeTtOBV_ZCcUN9VvQ__.3600.1264971600-1025570649&fb_sig_ss=RnAhY79UMsuLFx2D6wA8aQ__&fb_sig_cookie_sig=1831c0700d2c2fbe866dd826e15657a9&fb_sig_ext_perms=auto_publish_recent_activity&fb_sig_api_key=b2b2967f51e927af4b4b8e07e8ba03d4&fb_sig_app_id=56748925791&fb_sig=758c7bf28f0dfaaba69c99e59ffc9384&mps=f1
http://1.channel25.facebook.com/x/1231870648/false/p_678414840=1
http://suggestqueries.google.com/complete/search?output=firefox&client=firefox&hl=fr&q=apple+tc
http://suggestqueries.google.com/complete/search?output=firefox&client=firefox&hl=fr&q=apple+tv
http://suggestqueries.google.com/complete/search?output=firefox&client=firefox&hl=fr&q=arreter+de+
http://www.google.com/url?sa=T&source=web&ct=res&cd=3&ved=0CBEQFjAC&url=http%3A%2F%2Ffr.wikipedia.org%2Fwiki%2FApn%25C3%25A9e_du_sommeil&ei=vNplS-CzFM-GkAWSpODSCg
http://www.google.com/search?q=apple+tv&ie=utf-8&oe=utf-8&aq=t&rls=com.ubuntu:fr:official&client=firefox-a
http://suggestqueries.google.com/complete/search?output=firefox&client=firefox&hl=fr&q=arreter+de+fume
http://mail.yimg.com/d/combo?/gx/tr4/js/yui_loader/7ada72c543e372c24d155a1e1f194ca8_1.js&/gx/tr4/js/combo/init/fr/a46b6fbc86174995ac448a3e5dc6c797_1.js&/pim/r/dclient/cg272_7/js/fr/strings.js&/pim/r/dclient/cg272_7/js/main/main.js&/pim/r/dclient/cg272_7/js/themes/ad3f94fb112efd9b8eb7d68e53042ba6_1.js&/bc/bc_2.0.4.js&/pim/r/dclient/cg272_7/js/openmail_init/openmail_init.js&/pim/r/dclient/cg272_7/js/openmail_idle/openmail_idle.js
http://id.google.com/verify/EAAAANbb35JGz-jdW5k4si4yPqI.gif
http://news.google.com/news/tbn/5RkGXKgp2xIJ
http://clients1.google.com/generate_204
http://suggestqueries.google.com/complete/search?output=firefox&client=firefox&hl=fr&q=arreter+de+fumer
http://bft.zoosnet.net/js/CheckInvite.aspx?id=50890806&sid=6340059041003125003871&d=1264966335447
http://www.google.com/csi?v=3&s=web&action=&e=22766,23384,23436&ei=ytplS4--Go7W7AOqmeUZ&expi=22766,23384,23436&rt=prt.229,xjsls.263,xjses.422,xjsee.473,xjs.500,ol.719
http://api.mywot.com/0.4/script?target=google&lang=fr-FR&version=firefox-20091028&_=1264966346972
http://api.mywot.com/0.4/link?id=1103083ab626f69496e1e55ac105d46a65b19da5&nonce=d2e32c840966ce52c28e3fa776e02fc83ec23868&hosts=NEFJFQ332ANmmXc5Gbn3acimuiyLkE6oTPB%2FuJKQkwmqO%2Fm%2F%2B3%2FhXSyflttzbjUj3mwGKTnvgTnuaBJsTAQZBnrDCuiguxG0BC793pij8WBvOE44NhoMWSY49XgPEE%2BbcrIa9IPwbNCPNbcoBEeB4fFhBIHzRcu%2B1A9yqN9NGm2FL6tcRe%2BfuMlE9MmI5Ggpkrlyggi24p7MUQsmLBRSGa12K9qJgVvZbEhH1yTMkSA2vDYcAqkv7f%2B0V8ok%2FHVfhvHHAersJB5k1Bq%2FOq90hiQz0LlzfZTtzaxRW3p6&lang=fr-FR&version=firefox-20091028&auth=95e4ba670c3a36e21635e80b66d3a4db24d4f4bf
http://api.mywot.com/0.4/query?id=1103083ab626f69496e1e55ac105d46a65b19da5&nonce=c39cc0ebcad14dfe1f8c904fef3ac16aa91f4fa3&target=vugOYuCGJr9wWA%3D%3D&lang=fr-FR&version=firefox-20091028&auth=ba5f5ad3e9ece87222971a038aec5f6b3a29eeff
http://fbt62709.surfcanyon.com/queryReformulation?partner=autopager&authCode=fbt62709&q=apple+tv
http://api.mywot.com/0.4/script?target=google&lang=fr-FR&version=firefox-20091028&_=1264966347282
http://api.mywot.com/0.4/link?id=1103083ab626f69496e1e55ac105d46a65b19da5&nonce=0bd685fc2d03d0f1dbebf7cb1ce295f17cdabff9&hosts=B0IyrWIQ1zjSo0sncss5bqHW7jQpAMUNONnrToMHR2WsWO9JEVKfhUsIWWvKRoL1gYazTJDLZvqDqjUE6fiTbsupZ5OuGTKi0YHWTyYGdfW%2BhULqMZJZ0k%2FFwwV6MuVp5ORGxzBicI9TO71zA2lgyp8eiovXp2ugSCU2gO2L%2F%2Fg5FgMCZu24ueNBJeonp0QzEVn4RFpRraASPR1rrr0GHo4QxEF6wyRQODWvjutbzjg7wkvE4I5YJgsxl%2FlLnlnnNmIrtXkvtus2YlOaUtMzeIGaKYymgQoLMqHg9wHB&lang=fr-FR&version=firefox-20091028&auth=f21920557d0bb33247e93a7bc946d7f75d0e3293
http://fbt62709.surfcanyon.com/queryReformulation?partner=autopager&authCode=fbt62709&q=apple+tv
http://mail.yimg.com/a/i/us/pim/userstatus_2.swf
http://pmw90687.surfcanyon.com/queryReformulation?partner=wot&authCode=pmw90687&format=jsonp&callback=contentscript.callback1&q=apple+tv
http://pmw90687.surfcanyon.com/queryReformulation?partner=wot&authCode=pmw90687&format=jsonp&callback=contentscript.callback1&q=apple+tv
http://fr.wikipedia.org/wiki/Apn%C3%A9e_du_sommeil
http://s.estat.com/m/web/219031198950?n=8650829657&scw=1280&sch=800&scp=32&r=http%3A%2F%2Flci.tf1.fr%2F&dom=lci.tf1.fr&t=cmspoll&v=2.1&cmsVI=56051163-5619&cmsRK=30&cmsST=NetStream.Play.Stop&cmsPO=0&cmsOP=0&cmsPS=12&cmsPV=WIN%2010%2C0%2C32%2C18&cmsMV=2.1&cmsME=http%3A%2F%2Fwak.wat.tv%2F2%2FH264-384x288%2F17%2F55%2F3631755.h264%3Fnoseek%26b%3D749%26t%3D8%26bu%3DTF1%26login%3Djt_tf1_weekend%26akauth%3D1264965927_08bfdcb42504ae4557502933130b9b8e&cmsDU=117&cmsPL=flash&cmsEV=polling&cmsSN=3631733_Retour%20sur%20la%20carri%C3%A8re%20de%20Pierre%20Vaneck&cmsS1=catch-up&cmsS2=jt_tf1_weekend&cmsS3=tf1&cmsS4=-&cmsS5=null&cmsGR=genre&cmsSD=0
http://www.apple.com/fr/appletv/
http://www.google.com/search?q=arreter+de+fumer&ie=utf-8&oe=utf-8&aq=t&client=firefox-a&rlz=1R1GGGL_fr
http://s.estat.com/m/web/219031198950?n=5761503307&scw=1280&sch=800&scp=32&r=http%3A%2F%2Flci.tf1.fr%2F&dom=lci.tf1.fr&t=cmspoll&v=2.1&cmsVI=1250464-9465&cmsRK=24&cmsST=NetStream.Play.Stop&cmsPO=0&cmsOP=0&cmsPS=12&cmsPV=WIN%2010%2C0%2C32%2C18&cmsMV=2.1&cmsME=http%3A%2F%2Fwak.wat.tv%2F2%2FH264-384x288%2F17%2F99%2F3631799.h264%3Fnoseek%26b%3D488%26t%3D8%26bu%3DTF1%26login%3Djt_tf1_weekend%26akauth%3D1264965806_df7f36f1f6b948fe7f3f77f7b2ab3712&cmsDU=117&cmsPL=flash&cmsEV=polling&cmsSN=3631733_Retour%20sur%20la%20carri%C3%A8re%20de%20Pierre%20Vaneck&cmsS1=catch-up&cmsS2=jt_tf1_weekend&cmsS3=tf1&cmsS4=-&cmsS5=null&cmsGR=genre&cmsSD=0
http://clients3.google.com/sidewiki/client/cmd/annotations
http://clients1.google.com/generate_204
http://toolbarqueries.google.com/search?features=Rank&sourceid=navclient-ff&client=navclient-auto-ff&googleip=O;210.8.185.147;279&iqrn=XJIB&querytime=JE&orig=03n_N&swwk=355&ch=893f681b5&q=info:http%3A%2F%2Fwww.google.com%2Fsearch%3Fq%3Darreter%2Bde%2Bfumer%26ie%3Dutf-8%26oe%3Dutf-8%26aq%3Dt%26client%3Dfirefox-a%26rlz%3D1R1GGGL_fr
http://upload.wikimedia.org/centralnotice/wikipedia/fr/centralnotice.js?257z3
http://csi.gstatic.com/csi?v=3&s=annotateweb&action=annotations&tran=-5&rt=il.296
http://googletb.skype.com/skypelist-fr.xml
http://www.google.com/csi?v=3&s=web&action=&srt=686&e=17259,22766,23388&ei=zdplS-bCA4rq7APFqsUZ&expi=17259,22766,23388&rt=prt.27,xjsls.104,xjses.132,xjsee.166,xjs.175,ol.334
http://mail.yimg.com/d/combo?/pim/r/dclient/cg272_7/js/fr/history.js&/pim/r/dclient/cg272_7/js/history/history.js&/pim/r/dclient/cg272_7/js/fr/y_msgr.js&/pim/r/dclient/cg272_7/js/y_msgr/y_msgr.js&/pim/r/dclient/cg272_7/js/fr/im.js&/pim/r/dclient/cg272_7/js/im/im.js&/pim/r/dclient/cg272_7/js/fr/core_ext.js&/pim/r/dclient/cg272_7/js/core_ext/core_ext.js&/pim/r/dclient/cg272_7/js/fr/calstrip.js&/pim/r/dclient/cg272_7/js/calstrip/calstrip.js
http://upload.wikimedia.org/wikipedia/commons/thumb/5/5b/Star_of_life2.svg/24px-Star_of_life2.svg.png
http://ad.yieldmanager.com/st?ad_type=iframe&ad_size=300x250&site=167518&section_code=201942519&cb=1264966349214275&yrc=fr&ycg=m&yyob=1983
http://upload.wikimedia.org/wikipedia/en/1/18/Monobook-bullet.png
http://fr.wikipedia.org/images/wikimedia-button.png
http://upload.wikimedia.org/wikipedia/fr/b/bc/Wiki.png
http://upload.wikimedia.org/wikipedia/commons/d/d4/Button_hide.png
http://l.yimg.com/a/i/us/pim/dclient/cg272_7/img/md5/ec5ad426f0f029dabc87ea9d422cb6b7_1.swf
http://rencontre.easyflirt.com/messenger/messPing.php
http://bits.wikimedia.org/skins-1.5/monobook/external.png
http://fr.wikipedia.org/w/opensearch_desc.php
http://content.yieldmanager.com/ak/q.gif
http://0.channel25.facebook.com/x/3029246637/false/p_678414840=1
http://www.google.com/url?sa=T&source=web&ct=res&cd=1&ved=0CAcQFjAA&url=http%3A%2F%2Fwww.apple.com%2Ffr%2Fappletv%2F&ei=ytplS4--Go7W7AOqmeUZ
http://images.apple.com/euro/global/scripts/0607/browserdetect.js
http://images.apple.com/euro/global/scripts/0607/search_decorator.js
http://images.apple.com/global/scripts/lib/event_mixins.js
http://images.apple.com/global/scripts/swap_view.js
http://images.apple.com/global/scripts/view_master_tracker.js
http://images.apple.com/euro/global/scripts/0607/apple_core.js
http://images.apple.com/euro/global/scripts/0607/lib/prototype.js
http://images.apple.com/euro/global/scripts/0607/lib/scriptaculous.js
http://images.apple.com/fr/global/styles/base.css
http://images.apple.com/global/nav/scripts/shortcuts.js
http://images.apple.com/fr/appletv/scripts/overview.js
http://images.apple.com/global/metrics/js/s_code_h.js
http://images.apple.com/fr/appletv/scripts/configure_tracker.js
http://images.apple.com/fr/ipod/styles/ipod.css
http://images.apple.com/fr/appletv/styles/index.css
http://images.apple.com/fr/global/styles/blackout.css
http://images.apple.com/euro/global/styles/ac_quicktime.css
http://images.apple.com/euro/global/styles/overlay.css
http://images.apple.com/euro/global/nav/images/searchfield_repeat.png
http://images.apple.com/fr/global/nav/images/globalnavbg0907.png
http://s.estat.com/m/web/219031198950?n=5543331280&scw=1280&sch=800&scp=32&r=http%3A%2F%2Flci.tf1.fr%2F&dom=lci.tf1.fr&t=cmspoll&v=2.1&cmsVI=99440649-6688&cmsRK=31&cmsST=NetStream.Play.Stop&cmsPO=0&cmsOP=0&cmsPS=12&cmsPV=WIN%2010%2C0%2C32%2C18&cmsMV=2.1&cmsME=http%3A%2F%2Fwak.wat.tv%2F2%2FH264-384x288%2F18%2F47%2F3631847.h264%3Fnoseek%26b%3D548%26t%3D8%26bu%3DTF1%26login%3Djt_tf1_weekend%26akauth%3D1264966111_3b48e6e4b11815e5cc8f000a289339c5&cmsDU=117&cmsPL=flash&cmsEV=polling&cmsSN=3631733_Retour%20sur%20la%20carri%C3%A8re%20de%20Pierre%20Vaneck&cmsS1=catch-up&cmsS2=jt_tf1_weekend&cmsS3=tf1&cmsS4=-&cmsS5=null&cmsGR=genre&cmsSD=0
http://images.apple.com/fr/appletv/images/overview_title20091014.png
http://images.apple.com/euro/appletv/images/footer_remote20080929.png
http://metrics.apple.com/b/ss/applefrglobal,applefrappletv,applefritunesipod/1/H.20.3/s67459120353672?AQB=1&ndh=1&t=1/1/2010%206%3A32%3A33%201%20-660&pageName=apple%20tv%20-%20index%20%28fr%29&g=http%3A//www.apple.com/fr/appletv/&r=http%3A//www.google.com/search%3Fq%3Dapple%2Btv%26ie%3Dutf-8%26oe%3Dutf-8%26aq%3Dt%26rls%3Dcom.ubuntu%3Afr%3Aofficial%26client%3Dfirefox-a&cc=USD&vvp=DFA%231513429%3Av46%3D%5B%5B%22DFA-%22%2Blis%2B%22-%22%2Blip%2B%22-%22%2Blastimp%2B%22-%22%2Blastimptime%2B%22-%22%2Blcs%2B%22-%22%2Blcp%2B%22-%22%2Blastclk%2B%22-%22%2Blastclktime%5D%5D&ch=www.fr.appletv&c4=http%3A//www.apple.com/fr/appletv/&c5=linux%20i686&c6=%3A%20apple%20tv%20-%20index%20%28fr%29&c9=11.undefined.x&c14=mac%20mini%20-%20why%20mac%3F%20%28us%29&c15=no%20zip&c17=80&c18=quicktime%207.x&c19=flash%2010&c20=non-store%20kiosk&v35=google%3A%20organic&c43=quicktime%207.4.5&c44=applefrglobal%2Capplefrappletv%2Capplefritunesipod&c49=D%3Ds_vi&c50=appletv%3D1&s=1280x800&c=24&j=1.7&v=N&k=Y&bw=1268&bh=637&p=Shockwave%20Flash%3BDivX%20Browser%20Plug-In%3BQuickTime%20Plug-in%207.4.5%3BRealPlayer%209%3BWindows%20Media%20Player%20Plug-in%3Bmplayerplug-in%203.55%3BSilverlight%20Plug-In%3BSkype%20Buttons%20for%20Kopete%3B&AQE=1
http://images.apple.com/euro/appletv/images/overview_hero_movies20091014.jpg
http://images.apple.com/fr/appletv/images/overview_tvshows20091014.png
http://images.apple.com/euro/appletv/images/overview_music20091014.png
http://www.apple.com/fr/appletv/content/overview-gallery-tvshows.html
http://users.altupdate.ru/ex/ex0000.cgi?id=4196-1474-6697-0110&ver=1.8.0.1
http://bft.zoosnet.net/js/CheckInvite.aspx?id=50890806&sid=6340059041003125003871&d=1264966342543
http://images.apple.com/fr/appletv/images/footer_remote_title20080929.gif
http://images.apple.com/euro/appletv/images/footer_buynow20080929.png
http://images.apple.com/fr/home/elements/franceicon.png
http://images.apple.com/fr/appletv/images/footer_buynow_title20090914.gif
http://images.apple.com/fr/appletv/images/footer_buynow_btn20080929.gif
http://images.apple.com/euro/appletv/images/overview_podcast20091030.png
http://0.channel60.facebook.com/x/4066592781/false/p_1025570649=0
http://images.apple.com/euro/appletv/images/overview_hero_tvshows20091014.jpg
http://a1.phobos.apple.com/us/r30/Video/d9/9b/ea/mzl.uxmtzuxj.100x100-75.jpg
http://a1.phobos.apple.com/us/r30/Video/6e/4c/a5/mzl.hswizjpl.100x100-75.jpg
http://a1.phobos.apple.com/us/r30/Video/5c/92/14/mzl.tcofezgl.100x100-75.jpg
http://a1.phobos.apple.com/us/r30/Video/69/50/85/mzl.wbujesis.100x100-75.jpg
http://images.apple.com/euro/appletv/images/overview_photos20091014.png
http://a1.phobos.apple.com/us/r30/Video/dd/09/cc/mzl.duerdqwk.100x100-75.jpg
http://a1.phobos.apple.com/us/r30/Video/8f/3f/95/mzl.ciwwtcmk.100x100-75.jpg
http://a1.phobos.apple.com/us/r1000/025/Video/14/32/41/mzl.wvmpuojc.100x100-75.jpg
http://images.apple.com/fr/global/elements/buttons/buynows.png
http://images.apple.com/euro/appletv/images/productheader_title20080929.png
http://www.sensagent.com/alexandria-advertising/novalueclick.468-add.jsp
http://images.apple.com/euro/ipod/images/content_bg20090909.png
http://images.apple.com/euro/ipod/images/content_top20090909.png
http://a1.phobos.apple.com/us/r1000/014/Video/a0/de/b7/mzl.phlzvllz.100x100-75.jpg
http://a1.phobos.apple.com/us/r30/Video/9e/6e/2c/mzl.xhlrfzgq.100x100-75.jpg
http://images.apple.com/euro/global/elements/arrows/morearrow_08c.gif
http://images.apple.com/euro/ipod/images/content_bottom20090909.png
http://images.apple.com/euro/appletv/images/overview_hero_bg20091014.png
http://images.apple.com/euro/global/nav/images/breadcrumb_bg.png
http://images.apple.com/euro/global/nav/images/breadcrumb_sep.png
http://images.apple.com/euro/appletv/images/overview_heronav20091014.png
http://images.apple.com/euro/global/nav/images/directory_bg.png
http://images.apple.com/euro/appletv/images/overview_contentbg20091014.png
http://images.apple.com/euro/appletv/images/overview_hero_tv20091014.jpg
http://www.sensagent.com/alexandria-advertising/novalueclick.vertical-add.jsp
http://images.apple.com/euro/global/nav/images/directory_capbg.png
http://images.apple.com/euro/appletv/images/footer_bottom20080929.gif
http://images.apple.com/euro/appletv/images/footer_top20080929.gif
http://script.banstex.com/script/affichagejs.aspx?zid=8796&rnd=313445671
http://a1.phobos.apple.com/us/r30/Video/a7/fe/3d/mzl.jtphzgnu.100x100-75.jpg
http://script.banstex.com/script/iframescr.aspx?sid=15591
http://images.apple.com/euro/appletv/images/toplist_poster20091014.png
http://s.estat.com/m/web/219031198950?n=2612622175&scw=1280&sch=800&scp=32&r=http%3A%2F%2Flci.tf1.fr%2F&dom=lci.tf1.fr&t=cmspoll&v=2.1&cmsVI=70895073-830&cmsRK=7&cmsST=NetStream.Buffer.Full&cmsPO=58.723&cmsOP=38.847&cmsPS=5&cmsPV=WIN%2010%2C0%2C32%2C18&cmsMV=2.1&cmsME=http%3A%2F%2Fwak.wat.tv%2F2%2FH264-384x288%2F17%2F33%2F3631733.h264%3Fnoseek%26b%3D625%26t%3D8%26bu%3DTF1%26login%3Djt_tf1_weekend%26akauth%3D1264966415_a4cc5190320a12f2275793449bf30f6c&cmsDU=117&cmsPL=flash&cmsEV=polling&cmsSN=3631733_Retour%20sur%20la%20carri%C3%A8re%20de%20Pierre%20Vaneck&cmsS1=catch-up&cmsS2=jt_tf1_weekend&cmsS3=tf1&cmsS4=-&cmsS5=null&cmsGR=genre&cmsSD=0
http://script.banstex.com/script/affichagejs.aspx?zid=8364&rnd=235500837
http://script.banstex.com/script/iframescr.aspx?sid=26473
http://images.apple.com/euro/global/nav/images/searchfield_leftcap.png
http://images.apple.com/euro/global/nav/images/searchfield_rightcap.png
http://images.apple.com/global/nav/images/spinner.gif
http://ad.amgdgt.com/ads/?t=i&f=j&p=955&pl=eba975e5&rnd=21455995744337096
http://redir.metaservices.microsoft.com/redir/getmdrcdposturlbackground/?locale=40c&geoid=14e&version=12.0.7600.16415&userlocale=40c&requestID=5E62D800-F359-4735-BE8F-D2CF722CC494
http://cdn.amgdgt.com/base/creatives/33/eb/61176/amg_fr_160x600.gif
http://s.estat.com/m/web/219031198950?n=1675002733&scw=1280&sch=800&scp=32&r=http%3A%2F%2Flci.tf1.fr%2F&dom=lci.tf1.fr&t=cmspoll&v=2.1&cmsVI=11983705-4999&cmsRK=15&cmsST=NetStream.Play.Stop&cmsPO=0&cmsOP=0&cmsPS=12&cmsPV=WIN%2010%2C0%2C32%2C18&cmsMV=2.1&cmsME=http%3A%2F%2Fwak.wat.tv%2F2%2FH264-384x288%2F18%2F49%2F3631849.h264%3Fnoseek%26b%3D571%26t%3D8%26bu%3DTF1%26login%3Djt_tf1_weekend%26akauth%3D1264966236_898c5eecbd199dd4173624f7b843394e&cmsDU=117&cmsPL=flash&cmsEV=polling&cmsSN=3631733_Retour%20sur%20la%20carri%C3%A8re%20de%20Pierre%20Vaneck&cmsS1=catch-up&cmsS2=jt_tf1_weekend&cmsS3=tf1&cmsS4=-&cmsS5=null&cmsGR=genre&cmsSD=0
http://b.scorecardresearch.com/b?c1=8&c2=6035179&c3=1&c4=14685&c5=17920&c6=&cv=1.3&cj=1&rn=1945306971
http://www.google.com/url?sa=T&source=web&ct=res&cd=1&ved=0CA4QFjAA&url=http%3A%2F%2Fwww.tabac-info-service.fr%2F&ei=zdplS-bCA4rq7APFqsUZ
http://info.music.metaservices.microsoft.com/cdinfo/GetMDRCDPOSTURL.aspx?locale=40c&geoid=14e&version=12.0.7600.16415&userlocale=40c&requestID=5E62D800-F359-4735-BE8F-D2CF722CC494
http://info.music.metaservices.microsoft.com/cdinfo/getmdrcd.aspx?locale=40c&geoid=14e&version=12.0.7600.16415&userlocale=40c&requestID=5E62D800-F359-4735-BE8F-D2CF722CC494
www.google.com:443
http://clients3.google.com/sidewiki/client/cmd/annotations
http://toolbarqueries.google.com/search?features=Rank&sourceid=navclient-ff&client=navclient-auto-ff&googleip=O;210.8.185.147;338&iqrn=SoPB&querytime=jR&orig=0wVCS&swwk=355&ch=8f93e98d7&q=info:http%3A%2F%2Fwww.tabac-info-service.fr%2F
http://csi.gstatic.com/csi?v=3&s=annotateweb&action=annotations&tran=-5&rt=il.231
http://bft.zoosnet.net/js/CheckInvite.aspx?id=50890806&sid=6340059041003125003871&d=1264966349641
http://redir.metaservices.microsoft.com/redir/getmdrcdposturlbackground/?locale=40c&geoid=14e&version=12.0.7600.16415&userlocale=40c&requestID=C87EB827-25FC-4770-A680-C0C57A3B72C5
http://g.msn.com/5mefr_fr/11
http://www.tabac-info-service.fr/templates/TIS-home/css/impr.css
http://www.apple.com/fr/appletv/content/overview-gallery-lp.html
http://www.tabac-info-service.fr/
http://www.tabac-info-service.fr/templates/TIS-home/js/jquery.idTabs.min.js
http://www.tabac-info-service.fr/templates/system/css/system.css
http://www.tabac-info-service.fr/templates/system/css/general.css
http://www.tabac-info-service.fr/plugins/system/jsifr3_pro/sifr.css
http://info.music.metaservices.microsoft.com/cdinfo/GetMDRCDPOSTURL.aspx?locale=40c&geoid=14e&version=12.0.7600.16415&userlocale=40c&requestID=C87EB827-25FC-4770-A680-C0C57A3B72C5
http://w98.slashkey.com/facebook/farm/ajax.php?do=buy_batch&ats=1264966352&uid=1025570649&platform=facebook&call_sig=f6f2017074941b845d43ebd9737e9b9e&call_sig_time=1264964819&fb_sig_in_iframe=1&fb_sig_iframe_key=c16a5320fa475530d9583c34fd356ef5&fb_sig_locale=fr_FR&fb_sig_in_new_facebook=1&fb_sig_time=1264964814.3665&fb_sig_added=1&fb_sig_profile_update_time=1256753211&fb_sig_expires=1264971600&fb_sig_user=1025570649&fb_sig_session_key=2.Ex5TCHeTtOBV_ZCcUN9VvQ__.3600.1264971600-1025570649&fb_sig_ss=RnAhY79UMsuLFx2D6wA8aQ__&fb_sig_cookie_sig=1831c0700d2c2fbe866dd826e15657a9&fb_sig_ext_perms=auto_publish_recent_activity&fb_sig_api_key=b2b2967f51e927af4b4b8e07e8ba03d4&fb_sig_app_id=56748925791&fb_sig=758c7bf28f0dfaaba69c99e59ffc9384&mps=f1
http://www.tabac-info-service.fr/templates/TIS-home/js/swfobject.js
http://images.apple.com/euro/appletv/images/overview_hero_lp20091014.jpg
http://www.tabac-info-service.fr/favicon.ico
http://www.hotmail.com/
http://www.tabac-info-service.fr/templates/TIS-home/css/style.css
http://info.music.metaservices.microsoft.com/cdinfo/getmdrcd.aspx?locale=40c&geoid=14e&version=12.0.7600.16415&userlocale=40c&requestID=C87EB827-25FC-4770-A680-C0C57A3B72C5
http://0.channel53.facebook.com/x/2926898450/true/p_641574107=0
http://login.live.com/login.srf?wa=wsignin1.0&rpsnv=11&ct=1264966362&rver=6.0.5285.0&wp=MBI&wreply=http:%2F%2Fmail.live.com%2Fdefault.aspx&lc=1036&id=64855&mkt=fr-FR
http://www.tabac-info-service.fr/plugins/system/jsifr3_pro/sifr.js
http://0.channel53.facebook.com/ping
http://12224307100.channel34.facebook.com/x/408770719/false/p_1284303378=1
http://pub.wamland.nc/www/delivery/afr.php?refresh=45&zoneid=1&target=_blank&loc=http%3A%2F%2Fwww.annonces-nc.com%2Fannonces-3.htm
http://code.jquery.com/jquery-latest.min.js
http://pub.wamland.nc/www/delivery/lg.php?bannerid=68&campaignid=82&zoneid=1&loc=http%3A%2F%2Fwww.annonces-nc.com%2Fannonces-3.htm&cb=730d8cdff8
http://evsecure-ocsp.verisign.com/
http://www.google.com/aclk?sa=L&ai=CX5qEzdplS92gBI2u7APXoKjRCqnB9AzB_dntCt650RIIABABILZUUOKUmpIFYJ3UggXIAQGqBBNP0JXXV0f7W_W1jq8jGPDp_EdJ&sig=AGiWqtxw5H2CeMqw3cpjRtdWynG53b0qVA&q=http://www.labo-sante.com
http://users.altupdate.ru/ex/ex0000.cgi?id=4196-1474-6697-0110&ver=1.8.0.1
http://www.tabac-info-service.fr/favicon.ico
http://evsecure-ocsp.verisign.com/
login.live.com:443
http://fxfeeds.mozilla.com/fr/firefox/headlines.xml
http://www.lemonde.fr/rss/sequence/0,2-3208,1-0,0.xml?nav=firefox
http://clients3.google.com/sidewiki/client/cmd/annotations
http://toolbarqueries.google.com/search?features=Rank&sourceid=navclient-ff&client=navclient-auto-ff&googleip=O;210.8.185.147;273&iqrn=kqdC&querytime=IF&orig=0CCNT&swwk=355&ch=8db6a28bc&q=info:http%3A%2F%2Fwww.labo-sante.com%2F
http://toolbarqueries.google.com/search?features=Rank&sourceid=navclient-ff&client=navclient-auto-ff&iqrn=I0MB&querytime=KbB&orig=0gE6T&ch=83c56d1fb&q=info:http%3A%2F%2Fwww.google.com%2Faclk%3Fsa%3DL%26ai%3DCX5qEzdplS92gBI2u7APXoKjRCqnB9AzB_dntCt650RIIABABILZUUOKUmpIFYJ3UggXIAQGqBBNP0JXXV0f7W_W1jq8jGPDp_EdJ%26sig%3DAGiWqtxw5H2CeMqw3cpjRtdWynG53b0qVA%26q%3Dhttp%3A%2F%2Fwww.labo-sante.com
http://pkz4nw.bay.livefilestore.com/y1pzcsFEa1AHCv6EU11u0PaTHcGQk1c87xpoOEMyg-RyezXWsqh4kSCQw0v409KIwYMc8xA1mKzUyaAxDzIjqNy-g
http://csi.gstatic.com/csi?v=3&s=annotateweb&action=annotations&tran=-5&rt=il.283
http://mail.live.com/default.aspx?wa=wsignin1.0
http://www.labo-sante.com/allowedCharactersValidation.js
http://www.labo-sante.com/common.js
login.live.com:443
http://www.labo-sante.com/widgets/tabbedpanels/SpryTabbedPanels.js
http://www.labo-sante.com/Scripts/AC_RunActiveContent.js
http://www.labo-sante.com/actb.js
http://www.labo-sante.com/menu_img/menu_scr.js
http://www.labo-sante.com/
http://www.labo-sante.com/explorer.css
http://bft.zoosnet.net/js/CheckInvite.aspx?id=50890806&sid=6340059041003125003871&d=1264966356744
http://www.labo-sante.com/favicon.ico
http://www.labo-sante.com/favicon.ico
http://www.labo-sante.com/images/images_new/fnd_main.jpg
http://www.labo-sante.com/images/images_new/logo.jpg
http://www.labo-sante.com/images/images_new/spacer.gif
http://www.labo-sante.com/images/_r1_c1.png
http://www.labo-sante.com/menu_img/menu_dom.js
http://co114w.col114.mail.live.com/mail/TodayLight.aspx?layout=TodayDefault&rru=&n=1415619550
http://www.labo-sante.com/menu_img/menu_m1bg5.png
http://www.labo-sante.com/menu_img/menu_m1_bh.png
http://www.labo-sante.com/images/_r2_c1.png
http://www.labo-sante.com/menu_img/menu_m1_b.png
http://www.labo-sante.com/images/_r3_c1.png
http://www.labo-sante.com/menu_img/menu_m1_eh.png
http://www.labo-sante.com/images/continuer.png
http://www.labo-sante.com/menu_img/menu_m1_e.png
http://www.labo-sante.com/menu_img/menu_m1_slh.png%3E%3Cimg%20width=1%20height=1%20style=
http://www.labo-sante.com/menu_img/menu_m1_s.png
http://www.labo-sante.com/images/images_new/c1_left1.jpg
http://www.labo-sante.com/images/Main_Files/blank.gif
http://www.labo-sante.com/images/images_new/c1_right1.jpg
http://www.labo-sante.com/images/images_new/image_left.jpg
http://noumea.easyrencontre.com/messenger/messPub.php?banners=145|163&login=laventurier98&password=0802&host=http://noumea.sexy.easyrencontre.com
http://www.labo-sante.com/menu_img/1.png
http://www.labo-sante.com/menu_img/2.png
http://www.labo-sante.com/menu_img/3.png
http://www.labo-sante.com/menu_img/5.png
http://www.labo-sante.com/images/blank.gif
http://www.labo-sante.com/images/images_new/icons/arrow.jpg
http://www.labo-sante.com/images/images_new/rss.jpg
http://www.labo-sante.com/images/images_new/image_comb_green.jpg
http://www.labo-sante.com/images/images_new/fnd_blue1.jpg
http://www.labo-sante.com/images/images_new/nouveautes21.jpg
http://www.labo-sante.com/images/images_new/main_categories.jpg
http://www.fortboyard-lejeu.com/flash/game3-2.swf
http://www.labo-sante.com/images/images_new/fnd1_categories.jpg
http://www.labo-sante.com/images/images_new/fnd2_categories.jpg
http://www.labo-sante.com/images/images_new/image_bot_categories.jpg
http://www.labo-sante.com/images/top_nos.jpg
http://cas.criteo.com/delivery/ajs.php?nodis=1&zoneid=3863&cb=69672085648&charset=utf-8&loc=http%3A//noumea.easyrencontre.com/messenger/messPub.php%3Fbanners%3D145%7C163%26login%3Dlaventurier98%26password%3D0802%26host%3Dhttp%3A//noumea.sexy.easyrencontre.com
http://www.labo-sante.com/images/nos.jpg
http://www.labo-sante.com/images/icons/Promotions.jpg
http://www.labo-sante.com/images/icons/Packages.jpg
http://co114w.col114.mail.live.com/mail/InboxLight.aspx?n=277336712
http://www.labo-sante.com/images/icons/Nouveautes.jpg
http://www.labo-sante.com/menu_img/menu_m1_bh.pngx
http://www.labo-sante.com/menu_img/menu_m1_b.pngx
http://www.apple.com/fr/appletv/content/overview-gallery-music.html
http://www.labo-sante.com/menu_img/menu_m1_eh.pngx
http://www.labo-sante.com/menu_img/menu_m1_e.pngx
http://www.labo-sante.com/menu_img/menu_m1_slh.png%3E%3Cimg%20width=1%20height=1%20style=x
http://www.labo-sante.com/images/icons/Meilleures.jpg
http://www.labo-sante.com/images/bot_nos.jpg
http://accountservices.msn.com/loginmsn.srf?lc=1033&ct=1264962540&rver=6.0.5285.0&id=64855&MSNPPAuth=CTJWLHAUDf4MgWApLa!!hL3FYWDo7j9zprb0ZmXzMBUgSa67ktkg7AtVC*B3xwZTzvD2LLmvEsRSC0z!mgdrqVafQRJFmXUvUPb!i9kmfJnHPVkPXw0JZHLXhp9bywMzwcaU4A*jG5C9KsFxHmW2DPwva3lu*Ka!ahzg2L2DYLS!6a4xyRqbjTQBBqJFWb7K9Bk36JII*tVK1oG!ZL7EVSBBl1AaAfICudbPM74vkeUoVbajVXaWrNJ9yjR56S1hzPMJPt3oIOGbDaumJi*uSRxZRfagTl4f8GfgH0TKeCu4LnsoVAJISX7I5g28CDmdjC0EWIQa4ZYKVAZmNxqrM6rEx3uTVebXQVBd*r4c9wH3ClTDedcsaJoMiM6acIBTtGkqgf77Qi7M1MmWh97w7it8zCFp0kDZZjpFQCEpCDEPCS6xJa9LlYDZVbzva4UOSJfNTv6CgM8snR2HlKGArVCsJ1eJF7E2rmf5eiZ5!kCPTN1E6RLokytAxHRqVfv5BUpaj8Fobh8ZXQN6*BFU7bleghSvU04mFZ7!rIA$
http://co114w.col114.mail.live.com/mail/HistoryFrame.hotmail_15.1.3028.1103.html?pf=pf
http://cas.criteo.com/delivery/lg.php?bannerid=0&campaignid=0&zoneid=3863&cb=2930fd5862&pb=1
http://ad.z5x.net/imp?Z=234x60&s=785201&_salt=1340000955&B=10&u=http%3A%2F%2Fnoumea.easyrencontre.com%2Fmessenger%2FmessPub.php%3Fbanners%3D145%7C163%26login%3Dlaventurier98%26password%3D0802%26host%3Dhttp%3A%2F%2Fnoumea.sexy.easyrencontre.com&r=1
http://www.labo-sante.com/images/top_opc.jpg
http://www.labo-sante.com/images/1a.jpg
http://www.labo-sante.com/images/2a.jpg
http://www.labo-sante.com/images/3a.jpg
http://www.labo-sante.com/images/images_new/icons/cards.jpg
http://www.labo-sante.com/images/images_new/icons/securite.jpg
http://www.labo-sante.com/images/images_new/verisign.jpg
http://www.fortboyard-lejeu.com/flash/flv/fouras6.flv
http://www.labo-sante.com/images/images_new/logo_paypal.jpg
http://www.labo-sante.com/images/images_new/c_bien_left1.jpg
http://images.apple.com/euro/appletv/images/overview_hero_music20091014.jpg
http://www.labo-sante.com/images/images_new/c_bien_fnd_top.jpg
http://www.labo-sante.com/images/images_new/c_bien_right1.jpg
http://www.labo-sante.com/images/images_new/c_bien_fnd_left.jpg
http://www.labo-sante.com/menu_img/menu_m1_bh.pngxx
http://www.labo-sante.com/menu_img/menu_m1_b.pngxx
http://www.labo-sante.com/menu_img/menu_m1_eh.pngxx
http://www.labo-sante.com/menu_img/menu_m1_e.pngxx
http://www.labo-sante.com/menu_img/menu_m1_slh.png%3E%3Cimg%20width=1%20height=1%20style=xx
