1264966276.607 1 1674 TCP_MISS/200 620 GET http://apps.facebook.com/ajax/apps/usage_update.php?app=98531239231&is_game=true&asyncSignal=6299&post_form_id=dc2e07b8285bec7a7309c84d34bff7d0 - DIRECT/69.63.186.31
1264966276.607 2 1071 TCP_MISS/200 554 GET http://ad.yieldmanager.com/imp?Z=728x90&s=513131&_salt=2391465208&B=10&u=http%3A%2F%2F47aa1998.linkbucks.com%2F&r=0 - DIRECT/98.137.49.1
1264966276.607 3 467 TCP_MISS/302 589 GET http://bft.zoosnet.net/js/CheckInvite.aspx?id=50890806&sid=6340059041003125003871&d=1264966264455 - DIRECT/218.61.13.121
1264966276.608 4 1188 TCP_MISS/200 5738 GET http://mail.live.com/default.aspx?&ip=10.13.156.8&d=d4384&mf=0&rru=inbox - DIRECT/64.4.20.184
1264966276.646 2 0 TCP_IMS_HIT/304 284 GET http://content.yieldmanager.com/ak/q.gif - NONE/-
